^C:\USERS\11327\DESKTOP\SVN REPOSITORY\3DGP\3DGP.27\DIRECTXTK-MASTER\SRC\PCH.CPP
C:\WINDOWS\GLOBALIZATION\SORTING\SORTDEFAULT.NLS
C:\PROGRAM FILES (X86)\MICROSOFT VISUAL STUDIO 14.0\VC\BIN\1041\CLUI.DLL
C:\WINDOWS\SYSTEM32\TZRES.DLL
C:\USERS\11327\DESKTOP\SVN REPOSITORY\3DGP\3DGP.27\DIRECTXTK-MASTER\SRC\PCH.H
C:\PROGRAM FILES (X86)\WINDOWS KITS\8.1\INCLUDE\UM\WINDOWS.H
C:\PROGRAM FILES (X86)\WINDOWS KITS\8.1\INCLUDE\SHARED\WINAPIFAMILY.H
C:\PROGRAM FILES (X86)\WINDOWS KITS\8.1\INCLUDE\SHARED\SDKDDKVER.H
C:\PROGRAM FILES (X86)\MICROSOFT VISUAL STUDIO 14.0\VC\INCLUDE\EXCPT.H
C:\PROGRAM FILES (X86)\MICROSOFT VISUAL STUDIO 14.0\VC\INCLUDE\VCRUNTIME.H
C:\PROGRAM FILES (X86)\MICROSOFT VISUAL STUDIO 14.0\VC\INCLUDE\SAL.H
C:\PROGRAM FILES (X86)\MICROSOFT VISUAL STUDIO 14.0\VC\INCLUDE\CONCURRENCYSAL.H
C:\PROGRAM FILES (X86)\MICROSOFT VISUAL STUDIO 14.0\VC\INCLUDE\VADEFS.H
C:\PROGRAM FILES (X86)\MICROSOFT VISUAL STUDIO 14.0\VC\INCLUDE\STDARG.H
C:\PROGRAM FILES (X86)\WINDOWS KITS\8.1\INCLUDE\SHARED\WINDEF.H
C:\PROGRAM FILES (X86)\WINDOWS KITS\8.1\INCLUDE\SHARED\MINWINDEF.H
C:\PROGRAM FILES (X86)\WINDOWS KITS\8.1\INCLUDE\SHARED\SPECSTRINGS.H
C:\PROGRAM FILES (X86)\WINDOWS KITS\8.1\INCLUDE\SHARED\SPECSTRINGS_STRICT.H
C:\PROGRAM FILES (X86)\WINDOWS KITS\8.1\INCLUDE\SHARED\SPECSTRINGS_UNDEF.H
C:\PROGRAM FILES (X86)\WINDOWS KITS\8.1\INCLUDE\SHARED\DRIVERSPECS.H
C:\PROGRAM FILES (X86)\WINDOWS KITS\8.1\INCLUDE\SHARED\SDV_DRIVERSPECS.H
C:\PROGRAM FILES (X86)\WINDOWS KITS\8.1\INCLUDE\UM\WINNT.H
C:\PROGRAM FILES (X86)\WINDOWS KITS\10\INCLUDE\10.0.10240.0\UCRT\CTYPE.H
C:\PROGRAM FILES (X86)\WINDOWS KITS\10\INCLUDE\10.0.10240.0\UCRT\CORECRT.H
C:\PROGRAM FILES (X86)\WINDOWS KITS\10\INCLUDE\10.0.10240.0\UCRT\CORECRT_WCTYPE.H
C:\PROGRAM FILES (X86)\WINDOWS KITS\8.1\INCLUDE\SHARED\KERNELSPECS.H
C:\PROGRAM FILES (X86)\WINDOWS KITS\8.1\INCLUDE\SHARED\BASETSD.H
C:\PROGRAM FILES (X86)\WINDOWS KITS\8.1\INCLUDE\SHARED\GUIDDEF.H
C:\PROGRAM FILES (X86)\WINDOWS KITS\10\INCLUDE\10.0.10240.0\UCRT\STRING.H
C:\PROGRAM FILES (X86)\WINDOWS KITS\10\INCLUDE\10.0.10240.0\UCRT\CORECRT_MEMORY.H
C:\PROGRAM FILES (X86)\WINDOWS KITS\10\INCLUDE\10.0.10240.0\UCRT\CORECRT_MEMCPY_S.H
C:\PROGRAM FILES (X86)\WINDOWS KITS\10\INCLUDE\10.0.10240.0\UCRT\ERRNO.H
C:\PROGRAM FILES (X86)\MICROSOFT VISUAL STUDIO 14.0\VC\INCLUDE\VCRUNTIME_STRING.H
C:\PROGRAM FILES (X86)\WINDOWS KITS\10\INCLUDE\10.0.10240.0\UCRT\CORECRT_WSTRING.H
C:\PROGRAM FILES (X86)\WINDOWS KITS\8.1\INCLUDE\SHARED\PSHPACK4.H
C:\PROGRAM FILES (X86)\WINDOWS KITS\8.1\INCLUDE\SHARED\POPPACK.H
C:\PROGRAM FILES (X86)\WINDOWS KITS\8.1\INCLUDE\SHARED\PSHPACK2.H
C:\PROGRAM FILES (X86)\WINDOWS KITS\8.1\INCLUDE\SHARED\PSHPACK8.H
C:\PROGRAM FILES (X86)\WINDOWS KITS\8.1\INCLUDE\SHARED\APISET.H
C:\PROGRAM FILES (X86)\WINDOWS KITS\8.1\INCLUDE\SHARED\KTMTYPES.H
C:\PROGRAM FILES (X86)\WINDOWS KITS\8.1\INCLUDE\UM\WINBASE.H
C:\PROGRAM FILES (X86)\WINDOWS KITS\8.1\INCLUDE\SHARED\APISETCCONV.H
C:\PROGRAM FILES (X86)\WINDOWS KITS\8.1\INCLUDE\UM\MINWINBASE.H
C:\PROGRAM FILES (X86)\WINDOWS KITS\8.1\INCLUDE\UM\PROCESSENV.H
C:\PROGRAM FILES (X86)\WINDOWS KITS\8.1\INCLUDE\UM\FILEAPI.H
C:\PROGRAM FILES (X86)\WINDOWS KITS\8.1\INCLUDE\UM\DEBUGAPI.H
C:\PROGRAM FILES (X86)\WINDOWS KITS\8.1\INCLUDE\UM\UTILAPISET.H
C:\PROGRAM FILES (X86)\WINDOWS KITS\8.1\INCLUDE\UM\HANDLEAPI.H
C:\PROGRAM FILES (X86)\WINDOWS KITS\8.1\INCLUDE\UM\ERRHANDLINGAPI.H
C:\PROGRAM FILES (X86)\WINDOWS KITS\8.1\INCLUDE\UM\FIBERSAPI.H
C:\PROGRAM FILES (X86)\WINDOWS KITS\8.1\INCLUDE\UM\NAMEDPIPEAPI.H
C:\PROGRAM FILES (X86)\WINDOWS KITS\8.1\INCLUDE\UM\PROFILEAPI.H
C:\PROGRAM FILES (X86)\WINDOWS KITS\8.1\INCLUDE\UM\HEAPAPI.H
C:\PROGRAM FILES (X86)\WINDOWS KITS\8.1\INCLUDE\UM\IOAPISET.H
C:\PROGRAM FILES (X86)\WINDOWS KITS\8.1\INCLUDE\UM\SYNCHAPI.H
C:\PROGRAM FILES (X86)\WINDOWS KITS\8.1\INCLUDE\UM\INTERLOCKEDAPI.H
C:\PROGRAM FILES (X86)\WINDOWS KITS\8.1\INCLUDE\UM\PROCESSTHREADSAPI.H
C:\PROGRAM FILES (X86)\WINDOWS KITS\8.1\INCLUDE\UM\SYSINFOAPI.H
C:\PROGRAM FILES (X86)\WINDOWS KITS\8.1\INCLUDE\UM\MEMORYAPI.H
C:\PROGRAM FILES (X86)\WINDOWS KITS\8.1\INCLUDE\UM\THREADPOOLLEGACYAPISET.H
C:\PROGRAM FILES (X86)\WINDOWS KITS\8.1\INCLUDE\UM\THREADPOOLAPISET.H
C:\PROGRAM FILES (X86)\WINDOWS KITS\8.1\INCLUDE\UM\BEMAPISET.H
C:\PROGRAM FILES (X86)\WINDOWS KITS\8.1\INCLUDE\UM\JOBAPI.H
C:\PROGRAM FILES (X86)\WINDOWS KITS\8.1\INCLUDE\UM\WOW64APISET.H
C:\PROGRAM FILES (X86)\WINDOWS KITS\8.1\INCLUDE\UM\LIBLOADERAPI.H
C:\PROGRAM FILES (X86)\WINDOWS KITS\8.1\INCLUDE\UM\SECURITYBASEAPI.H
C:\PROGRAM FILES (X86)\WINDOWS KITS\8.1\INCLUDE\UM\NAMESPACEAPI.H
C:\PROGRAM FILES (X86)\WINDOWS KITS\8.1\INCLUDE\UM\SYSTEMTOPOLOGYAPI.H
C:\PROGRAM FILES (X86)\WINDOWS KITS\8.1\INCLUDE\UM\PROCESSTOPOLOGYAPI.H
C:\PROGRAM FILES (X86)\WINDOWS KITS\8.1\INCLUDE\UM\SECURITYAPPCONTAINER.H
C:\PROGRAM FILES (X86)\WINDOWS KITS\8.1\INCLUDE\UM\REALTIMEAPISET.H
C:\PROGRAM FILES (X86)\WINDOWS KITS\8.1\INCLUDE\SHARED\WINERROR.H
C:\PROGRAM FILES (X86)\WINDOWS KITS\8.1\INCLUDE\UM\TIMEZONEAPI.H
C:\PROGRAM FILES (X86)\WINDOWS KITS\8.1\INCLUDE\UM\WINGDI.H
C:\PROGRAM FILES (X86)\WINDOWS KITS\8.1\INCLUDE\UM\WINUSER.H
C:\PROGRAM FILES (X86)\WINDOWS KITS\8.1\INCLUDE\SHARED\TVOUT.H
C:\PROGRAM FILES (X86)\WINDOWS KITS\8.1\INCLUDE\UM\WINNLS.H
C:\PROGRAM FILES (X86)\WINDOWS KITS\8.1\INCLUDE\UM\DATETIMEAPI.H
C:\PROGRAM FILES (X86)\WINDOWS KITS\8.1\INCLUDE\UM\STRINGAPISET.H
C:\PROGRAM FILES (X86)\WINDOWS KITS\8.1\INCLUDE\UM\WINCON.H
C:\PROGRAM FILES (X86)\WINDOWS KITS\8.1\INCLUDE\UM\CONSOLEAPI.H
C:\PROGRAM FILES (X86)\WINDOWS KITS\8.1\INCLUDE\UM\WINVER.H
C:\PROGRAM FILES (X86)\WINDOWS KITS\8.1\INCLUDE\UM\VERRSRC.H
C:\PROGRAM FILES (X86)\WINDOWS KITS\8.1\INCLUDE\UM\WINREG.H
C:\PROGRAM FILES (X86)\WINDOWS KITS\8.1\INCLUDE\UM\REASON.H
C:\PROGRAM FILES (X86)\WINDOWS KITS\8.1\INCLUDE\UM\WINNETWK.H
C:\PROGRAM FILES (X86)\WINDOWS KITS\8.1\INCLUDE\SHARED\WNNC.H
C:\PROGRAM FILES (X86)\WINDOWS KITS\8.1\INCLUDE\SHARED\STRALIGN.H
C:\PROGRAM FILES (X86)\WINDOWS KITS\8.1\INCLUDE\UM\IMM.H
C:\PROGRAM FILES (X86)\WINDOWS KITS\8.1\INCLUDE\UM\IME_CMODES.H
C:\PROGRAM FILES (X86)\WINDOWS KITS\8.1\INCLUDE\UM\D3D11_1.H
C:\PROGRAM FILES (X86)\WINDOWS KITS\8.1\INCLUDE\SHARED\RPC.H
C:\PROGRAM FILES (X86)\WINDOWS KITS\8.1\INCLUDE\SHARED\RPCDCE.H
C:\PROGRAM FILES (X86)\WINDOWS KITS\8.1\INCLUDE\SHARED\RPCDCEP.H
C:\PROGRAM FILES (X86)\WINDOWS KITS\8.1\INCLUDE\UM\RPCNSI.H
C:\PROGRAM FILES (X86)\WINDOWS KITS\8.1\INCLUDE\SHARED\RPCNTERR.H
C:\PROGRAM FILES (X86)\WINDOWS KITS\8.1\INCLUDE\SHARED\RPCASYNC.H
C:\PROGRAM FILES (X86)\WINDOWS KITS\8.1\INCLUDE\SHARED\RPCNDR.H
C:\PROGRAM FILES (X86)\WINDOWS KITS\8.1\INCLUDE\UM\RPCNSIP.H
C:\PROGRAM FILES (X86)\WINDOWS KITS\8.1\INCLUDE\SHARED\RPCSAL.H
C:\PROGRAM FILES (X86)\WINDOWS KITS\8.1\INCLUDE\UM\OLE2.H
C:\PROGRAM FILES (X86)\WINDOWS KITS\8.1\INCLUDE\UM\OBJBASE.H
C:\PROGRAM FILES (X86)\WINDOWS KITS\8.1\INCLUDE\UM\COMBASEAPI.H
C:\PROGRAM FILES (X86)\WINDOWS KITS\10\INCLUDE\10.0.10240.0\UCRT\STDLIB.H
C:\PROGRAM FILES (X86)\WINDOWS KITS\10\INCLUDE\10.0.10240.0\UCRT\CORECRT_MALLOC.H
C:\PROGRAM FILES (X86)\WINDOWS KITS\10\INCLUDE\10.0.10240.0\UCRT\CORECRT_SEARCH.H
C:\PROGRAM FILES (X86)\WINDOWS KITS\10\INCLUDE\10.0.10240.0\UCRT\STDDEF.H
C:\PROGRAM FILES (X86)\WINDOWS KITS\10\INCLUDE\10.0.10240.0\UCRT\CORECRT_WSTDLIB.H
C:\PROGRAM FILES (X86)\MICROSOFT VISUAL STUDIO 14.0\VC\INCLUDE\LIMITS.H
C:\PROGRAM FILES (X86)\WINDOWS KITS\8.1\INCLUDE\SHARED\WTYPESBASE.H
C:\PROGRAM FILES (X86)\WINDOWS KITS\8.1\INCLUDE\UM\UNKNWNBASE.H
C:\PROGRAM FILES (X86)\WINDOWS KITS\8.1\INCLUDE\UM\OBJIDLBASE.H
C:\PROGRAM FILES (X86)\WINDOWS KITS\8.1\INCLUDE\UM\CGUID.H
C:\PROGRAM FILES (X86)\WINDOWS KITS\8.1\INCLUDE\UM\OBJIDL.H
C:\PROGRAM FILES (X86)\WINDOWS KITS\8.1\INCLUDE\UM\UNKNWN.H
C:\PROGRAM FILES (X86)\WINDOWS KITS\8.1\INCLUDE\SHARED\WTYPES.H
C:\PROGRAM FILES (X86)\WINDOWS KITS\8.1\INCLUDE\UM\URLMON.H
C:\PROGRAM FILES (X86)\WINDOWS KITS\8.1\INCLUDE\UM\OLEIDL.H
C:\PROGRAM FILES (X86)\WINDOWS KITS\8.1\INCLUDE\UM\SERVPROV.H
C:\PROGRAM FILES (X86)\WINDOWS KITS\8.1\INCLUDE\UM\MSXML.H
C:\PROGRAM FILES (X86)\WINDOWS KITS\8.1\INCLUDE\UM\OAIDL.H
C:\PROGRAM FILES (X86)\WINDOWS KITS\8.1\INCLUDE\UM\PROPIDL.H
C:\PROGRAM FILES (X86)\WINDOWS KITS\8.1\INCLUDE\UM\OLEAUTO.H
C:\PROGRAM FILES (X86)\WINDOWS KITS\8.1\INCLUDE\UM\OCIDL.H
C:\PROGRAM FILES (X86)\WINDOWS KITS\8.1\INCLUDE\SHARED\DXGI1_2.H
C:\PROGRAM FILES (X86)\WINDOWS KITS\8.1\INCLUDE\SHARED\DXGI.H
C:\PROGRAM FILES (X86)\WINDOWS KITS\8.1\INCLUDE\SHARED\DXGITYPE.H
C:\PROGRAM FILES (X86)\WINDOWS KITS\8.1\INCLUDE\SHARED\DXGIFORMAT.H
C:\PROGRAM FILES (X86)\WINDOWS KITS\8.1\INCLUDE\UM\D3DCOMMON.H
C:\PROGRAM FILES (X86)\WINDOWS KITS\8.1\INCLUDE\UM\D3D11.H
C:\PROGRAM FILES (X86)\WINDOWS KITS\8.1\INCLUDE\UM\D3D11SDKLAYERS.H
C:\PROGRAM FILES (X86)\WINDOWS KITS\8.1\INCLUDE\UM\D3D10_1.H
C:\PROGRAM FILES (X86)\WINDOWS KITS\8.1\INCLUDE\UM\D3D10.H
C:\PROGRAM FILES (X86)\WINDOWS KITS\8.1\INCLUDE\UM\D3D10SDKLAYERS.H
C:\PROGRAM FILES (X86)\WINDOWS KITS\8.1\INCLUDE\UM\D3D10MISC.H
C:\PROGRAM FILES (X86)\WINDOWS KITS\8.1\INCLUDE\UM\D3D10SHADER.H
C:\PROGRAM FILES (X86)\WINDOWS KITS\8.1\INCLUDE\UM\D3D10EFFECT.H
C:\PROGRAM FILES (X86)\WINDOWS KITS\8.1\INCLUDE\UM\D3D10_1SHADER.H
C:\PROGRAM FILES (X86)\WINDOWS KITS\8.1\INCLUDE\UM\DIRECTXMATH.H
C:\PROGRAM FILES (X86)\WINDOWS KITS\10\INCLUDE\10.0.10240.0\UCRT\MATH.H
C:\PROGRAM FILES (X86)\WINDOWS KITS\10\INCLUDE\10.0.10240.0\UCRT\FLOAT.H
C:\PROGRAM FILES (X86)\WINDOWS KITS\10\INCLUDE\10.0.10240.0\UCRT\MALLOC.H
C:\PROGRAM FILES (X86)\MICROSOFT VISUAL STUDIO 14.0\VC\INCLUDE\XMMINTRIN.H
C:\PROGRAM FILES (X86)\MICROSOFT VISUAL STUDIO 14.0\VC\INCLUDE\MMINTRIN.H
C:\PROGRAM FILES (X86)\MICROSOFT VISUAL STUDIO 14.0\VC\INCLUDE\EMMINTRIN.H
C:\PROGRAM FILES (X86)\WINDOWS KITS\10\INCLUDE\10.0.10240.0\UCRT\ASSERT.H
C:\PROGRAM FILES (X86)\MICROSOFT VISUAL STUDIO 14.0\VC\INCLUDE\YVALS.H
C:\PROGRAM FILES (X86)\MICROSOFT VISUAL STUDIO 14.0\VC\INCLUDE\XKEYCHECK.H
C:\PROGRAM FILES (X86)\MICROSOFT VISUAL STUDIO 14.0\VC\INCLUDE\CRTDEFS.H
C:\PROGRAM FILES (X86)\MICROSOFT VISUAL STUDIO 14.0\VC\INCLUDE\USE_ANSI.H
C:\PROGRAM FILES (X86)\MICROSOFT VISUAL STUDIO 14.0\VC\INCLUDE\STDINT.H
C:\PROGRAM FILES (X86)\WINDOWS KITS\8.1\INCLUDE\UM\DIRECTXMATHCONVERT.INL
C:\PROGRAM FILES (X86)\WINDOWS KITS\8.1\INCLUDE\UM\DIRECTXMATHVECTOR.INL
C:\PROGRAM FILES (X86)\WINDOWS KITS\8.1\INCLUDE\UM\DIRECTXMATHMATRIX.INL
C:\PROGRAM FILES (X86)\WINDOWS KITS\8.1\INCLUDE\UM\DIRECTXMATHMISC.INL
C:\PROGRAM FILES (X86)\WINDOWS KITS\8.1\INCLUDE\UM\DIRECTXPACKEDVECTOR.H
C:\PROGRAM FILES (X86)\WINDOWS KITS\8.1\INCLUDE\UM\DIRECTXPACKEDVECTOR.INL
C:\PROGRAM FILES (X86)\WINDOWS KITS\8.1\INCLUDE\UM\DIRECTXCOLLISION.H
C:\PROGRAM FILES (X86)\WINDOWS KITS\8.1\INCLUDE\UM\DIRECTXCOLLISION.INL
C:\PROGRAM FILES (X86)\MICROSOFT VISUAL STUDIO 14.0\VC\INCLUDE\ALGORITHM
C:\PROGRAM FILES (X86)\MICROSOFT VISUAL STUDIO 14.0\VC\INCLUDE\XMEMORY
C:\PROGRAM FILES (X86)\MICROSOFT VISUAL STUDIO 14.0\VC\INCLUDE\XMEMORY0
C:\PROGRAM FILES (X86)\MICROSOFT VISUAL STUDIO 14.0\VC\INCLUDE\CSTDINT
C:\PROGRAM FILES (X86)\MICROSOFT VISUAL STUDIO 14.0\VC\INCLUDE\CSTDLIB
C:\PROGRAM FILES (X86)\MICROSOFT VISUAL STUDIO 14.0\VC\INCLUDE\LIMITS
C:\PROGRAM FILES (X86)\MICROSOFT VISUAL STUDIO 14.0\VC\INCLUDE\YMATH.H
C:\PROGRAM FILES (X86)\MICROSOFT VISUAL STUDIO 14.0\VC\INCLUDE\CFLOAT
C:\PROGRAM FILES (X86)\MICROSOFT VISUAL STUDIO 14.0\VC\INCLUDE\CLIMITS
C:\PROGRAM FILES (X86)\MICROSOFT VISUAL STUDIO 14.0\VC\INCLUDE\CMATH
C:\PROGRAM FILES (X86)\MICROSOFT VISUAL STUDIO 14.0\VC\INCLUDE\XTGMATH.H
C:\PROGRAM FILES (X86)\MICROSOFT VISUAL STUDIO 14.0\VC\INCLUDE\XTR1COMMON
C:\PROGRAM FILES (X86)\MICROSOFT VISUAL STUDIO 14.0\VC\INCLUDE\CWCHAR
C:\PROGRAM FILES (X86)\WINDOWS KITS\10\INCLUDE\10.0.10240.0\UCRT\WCHAR.H
C:\PROGRAM FILES (X86)\WINDOWS KITS\10\INCLUDE\10.0.10240.0\UCRT\CORECRT_WCONIO.H
C:\PROGRAM FILES (X86)\WINDOWS KITS\10\INCLUDE\10.0.10240.0\UCRT\CORECRT_STDIO_CONFIG.H
C:\PROGRAM FILES (X86)\WINDOWS KITS\10\INCLUDE\10.0.10240.0\UCRT\CORECRT_WDIRECT.H
C:\PROGRAM FILES (X86)\WINDOWS KITS\10\INCLUDE\10.0.10240.0\UCRT\CORECRT_WIO.H
C:\PROGRAM FILES (X86)\WINDOWS KITS\10\INCLUDE\10.0.10240.0\UCRT\CORECRT_SHARE.H
C:\PROGRAM FILES (X86)\WINDOWS KITS\10\INCLUDE\10.0.10240.0\UCRT\CORECRT_WPROCESS.H
C:\PROGRAM FILES (X86)\WINDOWS KITS\10\INCLUDE\10.0.10240.0\UCRT\CORECRT_WSTDIO.H
C:\PROGRAM FILES (X86)\WINDOWS KITS\10\INCLUDE\10.0.10240.0\UCRT\CORECRT_WTIME.H
C:\PROGRAM FILES (X86)\WINDOWS KITS\10\INCLUDE\10.0.10240.0\UCRT\SYS\STAT.H
C:\PROGRAM FILES (X86)\WINDOWS KITS\10\INCLUDE\10.0.10240.0\UCRT\SYS\TYPES.H
C:\PROGRAM FILES (X86)\MICROSOFT VISUAL STUDIO 14.0\VC\INCLUDE\XSTDDEF
C:\PROGRAM FILES (X86)\MICROSOFT VISUAL STUDIO 14.0\VC\INCLUDE\CSTDDEF
C:\PROGRAM FILES (X86)\MICROSOFT VISUAL STUDIO 14.0\VC\INCLUDE\INITIALIZER_LIST
C:\PROGRAM FILES (X86)\MICROSOFT VISUAL STUDIO 14.0\VC\INCLUDE\NEW
C:\PROGRAM FILES (X86)\MICROSOFT VISUAL STUDIO 14.0\VC\INCLUDE\EXCEPTION
C:\PROGRAM FILES (X86)\MICROSOFT VISUAL STUDIO 14.0\VC\INCLUDE\TYPE_TRAITS
C:\PROGRAM FILES (X86)\MICROSOFT VISUAL STUDIO 14.0\VC\INCLUDE\VCRUNTIME_EXCEPTION.H
C:\PROGRAM FILES (X86)\MICROSOFT VISUAL STUDIO 14.0\VC\INCLUDE\EH.H
C:\PROGRAM FILES (X86)\WINDOWS KITS\10\INCLUDE\10.0.10240.0\UCRT\CORECRT_TERMINATE.H
C:\PROGRAM FILES (X86)\MICROSOFT VISUAL STUDIO 14.0\VC\INCLUDE\VCRUNTIME_NEW.H
C:\PROGRAM FILES (X86)\MICROSOFT VISUAL STUDIO 14.0\VC\INCLUDE\XUTILITY
C:\PROGRAM FILES (X86)\MICROSOFT VISUAL STUDIO 14.0\VC\INCLUDE\UTILITY
C:\PROGRAM FILES (X86)\MICROSOFT VISUAL STUDIO 14.0\VC\INCLUDE\IOSFWD
C:\PROGRAM FILES (X86)\MICROSOFT VISUAL STUDIO 14.0\VC\INCLUDE\CSTDIO
C:\PROGRAM FILES (X86)\WINDOWS KITS\10\INCLUDE\10.0.10240.0\UCRT\STDIO.H
C:\PROGRAM FILES (X86)\MICROSOFT VISUAL STUDIO 14.0\VC\INCLUDE\CSTRING
C:\PROGRAM FILES (X86)\WINDOWS KITS\10\INCLUDE\10.0.10240.0\UCRT\CRTDBG.H
C:\PROGRAM FILES (X86)\MICROSOFT VISUAL STUDIO 14.0\VC\INCLUDE\VCRUNTIME_NEW_DEBUG.H
C:\PROGRAM FILES (X86)\MICROSOFT VISUAL STUDIO 14.0\VC\INCLUDE\XATOMIC0.H
C:\PROGRAM FILES (X86)\MICROSOFT VISUAL STUDIO 14.0\VC\INCLUDE\INTRIN.H
C:\PROGRAM FILES (X86)\MICROSOFT VISUAL STUDIO 14.0\VC\INCLUDE\SETJMP.H
C:\PROGRAM FILES (X86)\MICROSOFT VISUAL STUDIO 14.0\VC\INCLUDE\IMMINTRIN.H
C:\PROGRAM FILES (X86)\MICROSOFT VISUAL STUDIO 14.0\VC\INCLUDE\WMMINTRIN.H
C:\PROGRAM FILES (X86)\MICROSOFT VISUAL STUDIO 14.0\VC\INCLUDE\NMMINTRIN.H
C:\PROGRAM FILES (X86)\MICROSOFT VISUAL STUDIO 14.0\VC\INCLUDE\SMMINTRIN.H
C:\PROGRAM FILES (X86)\MICROSOFT VISUAL STUDIO 14.0\VC\INCLUDE\TMMINTRIN.H
C:\PROGRAM FILES (X86)\MICROSOFT VISUAL STUDIO 14.0\VC\INCLUDE\PMMINTRIN.H
C:\PROGRAM FILES (X86)\MICROSOFT VISUAL STUDIO 14.0\VC\INCLUDE\AMMINTRIN.H
C:\PROGRAM FILES (X86)\MICROSOFT VISUAL STUDIO 14.0\VC\INCLUDE\MM3DNOW.H
C:\PROGRAM FILES (X86)\MICROSOFT VISUAL STUDIO 14.0\VC\INCLUDE\ARRAY
C:\PROGRAM FILES (X86)\MICROSOFT VISUAL STUDIO 14.0\VC\INCLUDE\ITERATOR
C:\PROGRAM FILES (X86)\MICROSOFT VISUAL STUDIO 14.0\VC\INCLUDE\ISTREAM
C:\PROGRAM FILES (X86)\MICROSOFT VISUAL STUDIO 14.0\VC\INCLUDE\OSTREAM
C:\PROGRAM FILES (X86)\MICROSOFT VISUAL STUDIO 14.0\VC\INCLUDE\IOS
C:\PROGRAM FILES (X86)\MICROSOFT VISUAL STUDIO 14.0\VC\INCLUDE\XLOCNUM
C:\PROGRAM FILES (X86)\MICROSOFT VISUAL STUDIO 14.0\VC\INCLUDE\STREAMBUF
C:\PROGRAM FILES (X86)\MICROSOFT VISUAL STUDIO 14.0\VC\INCLUDE\XIOSBASE
C:\PROGRAM FILES (X86)\MICROSOFT VISUAL STUDIO 14.0\VC\INCLUDE\XLOCALE
C:\PROGRAM FILES (X86)\MICROSOFT VISUAL STUDIO 14.0\VC\INCLUDE\STDEXCEPT
C:\PROGRAM FILES (X86)\MICROSOFT VISUAL STUDIO 14.0\VC\INCLUDE\XSTRING
C:\PROGRAM FILES (X86)\MICROSOFT VISUAL STUDIO 14.0\VC\INCLUDE\TYPEINFO
C:\PROGRAM FILES (X86)\MICROSOFT VISUAL STUDIO 14.0\VC\INCLUDE\VCRUNTIME_TYPEINFO.H
C:\PROGRAM FILES (X86)\MICROSOFT VISUAL STUDIO 14.0\VC\INCLUDE\XLOCINFO
C:\PROGRAM FILES (X86)\MICROSOFT VISUAL STUDIO 14.0\VC\INCLUDE\XLOCINFO.H
C:\PROGRAM FILES (X86)\WINDOWS KITS\10\INCLUDE\10.0.10240.0\UCRT\LOCALE.H
C:\PROGRAM FILES (X86)\MICROSOFT VISUAL STUDIO 14.0\VC\INCLUDE\XFACET
C:\PROGRAM FILES (X86)\MICROSOFT VISUAL STUDIO 14.0\VC\INCLUDE\SYSTEM_ERROR
C:\PROGRAM FILES (X86)\MICROSOFT VISUAL STUDIO 14.0\VC\INCLUDE\CERRNO
C:\PROGRAM FILES (X86)\WINDOWS KITS\10\INCLUDE\10.0.10240.0\UCRT\SHARE.H
C:\PROGRAM FILES (X86)\MICROSOFT VISUAL STUDIO 14.0\VC\INCLUDE\TUPLE
C:\PROGRAM FILES (X86)\MICROSOFT VISUAL STUDIO 14.0\VC\INCLUDE\LIST
C:\PROGRAM FILES (X86)\MICROSOFT VISUAL STUDIO 14.0\VC\INCLUDE\MAP
C:\PROGRAM FILES (X86)\MICROSOFT VISUAL STUDIO 14.0\VC\INCLUDE\XTREE
C:\PROGRAM FILES (X86)\MICROSOFT VISUAL STUDIO 14.0\VC\INCLUDE\MEMORY
C:\PROGRAM FILES (X86)\MICROSOFT VISUAL STUDIO 14.0\VC\INCLUDE\SET
C:\PROGRAM FILES (X86)\MICROSOFT VISUAL STUDIO 14.0\VC\INCLUDE\STRING
C:\PROGRAM FILES (X86)\MICROSOFT VISUAL STUDIO 14.0\VC\INCLUDE\VECTOR
C:\PROGRAM FILES (X86)\WINDOWS KITS\8.1\INCLUDE\WINRT\WRL.H
C:\PROGRAM FILES (X86)\WINDOWS KITS\8.1\INCLUDE\WINRT\WRL\CLIENT.H
C:\PROGRAM FILES (X86)\WINDOWS KITS\8.1\INCLUDE\WINRT\WEAKREFERENCE.H
C:\PROGRAM FILES (X86)\WINDOWS KITS\8.1\INCLUDE\WINRT\INSPECTABLE.H
C:\PROGRAM FILES (X86)\WINDOWS KITS\8.1\INCLUDE\WINRT\HSTRING.H
C:\PROGRAM FILES (X86)\WINDOWS KITS\8.1\INCLUDE\WINRT\ROAPI.H
C:\PROGRAM FILES (X86)\WINDOWS KITS\8.1\INCLUDE\WINRT\ACTIVATION.H
C:\PROGRAM FILES (X86)\WINDOWS KITS\8.1\INCLUDE\WINRT\WRL\DEF.H
C:\PROGRAM FILES (X86)\WINDOWS KITS\8.1\INCLUDE\WINRT\WRL\INTERNAL.H
C:\PROGRAM FILES (X86)\WINDOWS KITS\8.1\INCLUDE\WINRT\WRL\IMPLEMENTS.H
C:\PROGRAM FILES (X86)\WINDOWS KITS\8.1\INCLUDE\WINRT\WINSTRING.H
C:\PROGRAM FILES (X86)\WINDOWS KITS\10\INCLUDE\10.0.10240.0\UCRT\NEW.H
C:\PROGRAM FILES (X86)\WINDOWS KITS\8.1\INCLUDE\WINRT\WRL\MODULE.H
C:\PROGRAM FILES (X86)\WINDOWS KITS\8.1\INCLUDE\WINRT\WRL\FTM.H
C:\PROGRAM FILES (X86)\WINDOWS KITS\8.1\INCLUDE\WINRT\WRL\WRAPPERS\COREWRAPPERS.H
C:\PROGRAM FILES (X86)\WINDOWS KITS\8.1\INCLUDE\SHARED\INTSAFE.H
C:\PROGRAM FILES (X86)\WINDOWS KITS\8.1\INCLUDE\WINRT\WRL\EVENT.H
C:\PROGRAM FILES (X86)\WINDOWS KITS\8.1\INCLUDE\WINRT\EVENTTOKEN.H
C:\PROGRAM FILES (X86)\WINDOWS KITS\8.1\INCLUDE\WINRT\ROERRORAPI.H
C:\PROGRAM FILES (X86)\WINDOWS KITS\8.1\INCLUDE\UM\RESTRICTEDERRORINFO.H
C:\PROGRAM FILES (X86)\WINDOWS KITS\8.1\INCLUDE\UM\WINCODEC.H
C:\PROGRAM FILES (X86)\WINDOWS KITS\8.1\INCLUDE\UM\DCOMMON.H
^C:\USERS\11327\DESKTOP\SVN REPOSITORY\3DGP\3DGP.27\DIRECTXTK-MASTER\SRC\ALPHATESTEFFECT.CPP
C:\USERS\11327\DESKTOP\SVN REPOSITORY\3DGP\3DGP.27\DIRECTXTK-MASTER\BIN\DESKTOP_2015\WIN32\RELEASE\DIRECTXTK.PCH
C:\USERS\11327\DESKTOP\SVN REPOSITORY\3DGP\3DGP.27\DIRECTXTK-MASTER\SRC\EFFECTCOMMON.H
C:\USERS\11327\DESKTOP\SVN REPOSITORY\3DGP\3DGP.27\DIRECTXTK-MASTER\INC\EFFECTS.H
C:\USERS\11327\DESKTOP\SVN REPOSITORY\3DGP\3DGP.27\DIRECTXTK-MASTER\SRC\PLATFORMHELPERS.H
C:\PROGRAM FILES (X86)\MICROSOFT VISUAL STUDIO 14.0\VC\INCLUDE\MUTEX
C:\PROGRAM FILES (X86)\MICROSOFT VISUAL STUDIO 14.0\VC\INCLUDE\CHRONO
C:\PROGRAM FILES (X86)\MICROSOFT VISUAL STUDIO 14.0\VC\INCLUDE\RATIO
C:\PROGRAM FILES (X86)\WINDOWS KITS\10\INCLUDE\10.0.10240.0\UCRT\TIME.H
C:\PROGRAM FILES (X86)\MICROSOFT VISUAL STUDIO 14.0\VC\INCLUDE\THR\XTIMEC.H
C:\PROGRAM FILES (X86)\MICROSOFT VISUAL STUDIO 14.0\VC\INCLUDE\THR\XTHRCOMMON.H
C:\PROGRAM FILES (X86)\MICROSOFT VISUAL STUDIO 14.0\VC\INCLUDE\FUNCTIONAL
C:\PROGRAM FILES (X86)\MICROSOFT VISUAL STUDIO 14.0\VC\INCLUDE\XFUNCTIONAL
C:\PROGRAM FILES (X86)\MICROSOFT VISUAL STUDIO 14.0\VC\INCLUDE\THREAD
C:\PROGRAM FILES (X86)\MICROSOFT VISUAL STUDIO 14.0\VC\INCLUDE\THR\XTHREAD
C:\PROGRAM FILES (X86)\MICROSOFT VISUAL STUDIO 14.0\VC\INCLUDE\THR\XTIME
C:\PROGRAM FILES (X86)\MICROSOFT VISUAL STUDIO 14.0\VC\INCLUDE\THR\XTHREADS.H
C:\USERS\11327\DESKTOP\SVN REPOSITORY\3DGP\3DGP.27\DIRECTXTK-MASTER\SRC\CONSTANTBUFFER.H
C:\USERS\11327\DESKTOP\SVN REPOSITORY\3DGP\3DGP.27\DIRECTXTK-MASTER\INC\DIRECTXHELPERS.H
C:\USERS\11327\DESKTOP\SVN REPOSITORY\3DGP\3DGP.27\DIRECTXTK-MASTER\INC\GRAPHICSMEMORY.H
C:\USERS\11327\DESKTOP\SVN REPOSITORY\3DGP\3DGP.27\DIRECTXTK-MASTER\SRC\SHAREDRESOURCEPOOL.H
C:\USERS\11327\DESKTOP\SVN REPOSITORY\3DGP\3DGP.27\DIRECTXTK-MASTER\SRC\ALIGNEDNEW.H
C:\USERS\11327\DESKTOP\SVN REPOSITORY\3DGP\3DGP.27\DIRECTXTK-MASTER\SRC\SHADERS\COMPILED\ALPHATESTEFFECT_VSALPHATEST.INC
C:\USERS\11327\DESKTOP\SVN REPOSITORY\3DGP\3DGP.27\DIRECTXTK-MASTER\SRC\SHADERS\COMPILED\ALPHATESTEFFECT_VSALPHATESTNOFOG.INC
C:\USERS\11327\DESKTOP\SVN REPOSITORY\3DGP\3DGP.27\DIRECTXTK-MASTER\SRC\SHADERS\COMPILED\ALPHATESTEFFECT_VSALPHATESTVC.INC
C:\USERS\11327\DESKTOP\SVN REPOSITORY\3DGP\3DGP.27\DIRECTXTK-MASTER\SRC\SHADERS\COMPILED\ALPHATESTEFFECT_VSALPHATESTVCNOFOG.INC
C:\USERS\11327\DESKTOP\SVN REPOSITORY\3DGP\3DGP.27\DIRECTXTK-MASTER\SRC\SHADERS\COMPILED\ALPHATESTEFFECT_PSALPHATESTLTGT.INC
C:\USERS\11327\DESKTOP\SVN REPOSITORY\3DGP\3DGP.27\DIRECTXTK-MASTER\SRC\SHADERS\COMPILED\ALPHATESTEFFECT_PSALPHATESTLTGTNOFOG.INC
C:\USERS\11327\DESKTOP\SVN REPOSITORY\3DGP\3DGP.27\DIRECTXTK-MASTER\SRC\SHADERS\COMPILED\ALPHATESTEFFECT_PSALPHATESTEQNE.INC
C:\USERS\11327\DESKTOP\SVN REPOSITORY\3DGP\3DGP.27\DIRECTXTK-MASTER\SRC\SHADERS\COMPILED\ALPHATESTEFFECT_PSALPHATESTEQNENOFOG.INC
^C:\USERS\11327\DESKTOP\SVN REPOSITORY\3DGP\3DGP.27\DIRECTXTK-MASTER\SRC\BASICEFFECT.CPP
C:\USERS\11327\DESKTOP\SVN REPOSITORY\3DGP\3DGP.27\DIRECTXTK-MASTER\BIN\DESKTOP_2015\WIN32\RELEASE\DIRECTXTK.PCH
C:\USERS\11327\DESKTOP\SVN REPOSITORY\3DGP\3DGP.27\DIRECTXTK-MASTER\SRC\EFFECTCOMMON.H
C:\USERS\11327\DESKTOP\SVN REPOSITORY\3DGP\3DGP.27\DIRECTXTK-MASTER\INC\EFFECTS.H
C:\USERS\11327\DESKTOP\SVN REPOSITORY\3DGP\3DGP.27\DIRECTXTK-MASTER\SRC\PLATFORMHELPERS.H
C:\PROGRAM FILES (X86)\MICROSOFT VISUAL STUDIO 14.0\VC\INCLUDE\MUTEX
C:\PROGRAM FILES (X86)\MICROSOFT VISUAL STUDIO 14.0\VC\INCLUDE\CHRONO
C:\PROGRAM FILES (X86)\MICROSOFT VISUAL STUDIO 14.0\VC\INCLUDE\RATIO
C:\PROGRAM FILES (X86)\WINDOWS KITS\10\INCLUDE\10.0.10240.0\UCRT\TIME.H
C:\PROGRAM FILES (X86)\MICROSOFT VISUAL STUDIO 14.0\VC\INCLUDE\THR\XTIMEC.H
C:\PROGRAM FILES (X86)\MICROSOFT VISUAL STUDIO 14.0\VC\INCLUDE\THR\XTHRCOMMON.H
C:\PROGRAM FILES (X86)\MICROSOFT VISUAL STUDIO 14.0\VC\INCLUDE\FUNCTIONAL
C:\PROGRAM FILES (X86)\MICROSOFT VISUAL STUDIO 14.0\VC\INCLUDE\XFUNCTIONAL
C:\PROGRAM FILES (X86)\MICROSOFT VISUAL STUDIO 14.0\VC\INCLUDE\THREAD
C:\PROGRAM FILES (X86)\MICROSOFT VISUAL STUDIO 14.0\VC\INCLUDE\THR\XTHREAD
C:\PROGRAM FILES (X86)\MICROSOFT VISUAL STUDIO 14.0\VC\INCLUDE\THR\XTIME
C:\PROGRAM FILES (X86)\MICROSOFT VISUAL STUDIO 14.0\VC\INCLUDE\THR\XTHREADS.H
C:\USERS\11327\DESKTOP\SVN REPOSITORY\3DGP\3DGP.27\DIRECTXTK-MASTER\SRC\CONSTANTBUFFER.H
C:\USERS\11327\DESKTOP\SVN REPOSITORY\3DGP\3DGP.27\DIRECTXTK-MASTER\INC\DIRECTXHELPERS.H
C:\USERS\11327\DESKTOP\SVN REPOSITORY\3DGP\3DGP.27\DIRECTXTK-MASTER\INC\GRAPHICSMEMORY.H
C:\USERS\11327\DESKTOP\SVN REPOSITORY\3DGP\3DGP.27\DIRECTXTK-MASTER\SRC\SHAREDRESOURCEPOOL.H
C:\USERS\11327\DESKTOP\SVN REPOSITORY\3DGP\3DGP.27\DIRECTXTK-MASTER\SRC\ALIGNEDNEW.H
C:\USERS\11327\DESKTOP\SVN REPOSITORY\3DGP\3DGP.27\DIRECTXTK-MASTER\SRC\SHADERS\COMPILED\BASICEFFECT_VSBASIC.INC
C:\USERS\11327\DESKTOP\SVN REPOSITORY\3DGP\3DGP.27\DIRECTXTK-MASTER\SRC\SHADERS\COMPILED\BASICEFFECT_VSBASICNOFOG.INC
C:\USERS\11327\DESKTOP\SVN REPOSITORY\3DGP\3DGP.27\DIRECTXTK-MASTER\SRC\SHADERS\COMPILED\BASICEFFECT_VSBASICVC.INC
C:\USERS\11327\DESKTOP\SVN REPOSITORY\3DGP\3DGP.27\DIRECTXTK-MASTER\SRC\SHADERS\COMPILED\BASICEFFECT_VSBASICVCNOFOG.INC
C:\USERS\11327\DESKTOP\SVN REPOSITORY\3DGP\3DGP.27\DIRECTXTK-MASTER\SRC\SHADERS\COMPILED\BASICEFFECT_VSBASICTX.INC
C:\USERS\11327\DESKTOP\SVN REPOSITORY\3DGP\3DGP.27\DIRECTXTK-MASTER\SRC\SHADERS\COMPILED\BASICEFFECT_VSBASICTXNOFOG.INC
C:\USERS\11327\DESKTOP\SVN REPOSITORY\3DGP\3DGP.27\DIRECTXTK-MASTER\SRC\SHADERS\COMPILED\BASICEFFECT_VSBASICTXVC.INC
C:\USERS\11327\DESKTOP\SVN REPOSITORY\3DGP\3DGP.27\DIRECTXTK-MASTER\SRC\SHADERS\COMPILED\BASICEFFECT_VSBASICTXVCNOFOG.INC
C:\USERS\11327\DESKTOP\SVN REPOSITORY\3DGP\3DGP.27\DIRECTXTK-MASTER\SRC\SHADERS\COMPILED\BASICEFFECT_VSBASICVERTEXLIGHTING.INC
C:\USERS\11327\DESKTOP\SVN REPOSITORY\3DGP\3DGP.27\DIRECTXTK-MASTER\SRC\SHADERS\COMPILED\BASICEFFECT_VSBASICVERTEXLIGHTINGVC.INC
C:\USERS\11327\DESKTOP\SVN REPOSITORY\3DGP\3DGP.27\DIRECTXTK-MASTER\SRC\SHADERS\COMPILED\BASICEFFECT_VSBASICVERTEXLIGHTINGTX.INC
C:\USERS\11327\DESKTOP\SVN REPOSITORY\3DGP\3DGP.27\DIRECTXTK-MASTER\SRC\SHADERS\COMPILED\BASICEFFECT_VSBASICVERTEXLIGHTINGTXVC.INC
C:\USERS\11327\DESKTOP\SVN REPOSITORY\3DGP\3DGP.27\DIRECTXTK-MASTER\SRC\SHADERS\COMPILED\BASICEFFECT_VSBASICONELIGHT.INC
C:\USERS\11327\DESKTOP\SVN REPOSITORY\3DGP\3DGP.27\DIRECTXTK-MASTER\SRC\SHADERS\COMPILED\BASICEFFECT_VSBASICONELIGHTVC.INC
C:\USERS\11327\DESKTOP\SVN REPOSITORY\3DGP\3DGP.27\DIRECTXTK-MASTER\SRC\SHADERS\COMPILED\BASICEFFECT_VSBASICONELIGHTTX.INC
C:\USERS\11327\DESKTOP\SVN REPOSITORY\3DGP\3DGP.27\DIRECTXTK-MASTER\SRC\SHADERS\COMPILED\BASICEFFECT_VSBASICONELIGHTTXVC.INC
C:\USERS\11327\DESKTOP\SVN REPOSITORY\3DGP\3DGP.27\DIRECTXTK-MASTER\SRC\SHADERS\COMPILED\BASICEFFECT_VSBASICPIXELLIGHTING.INC
C:\USERS\11327\DESKTOP\SVN REPOSITORY\3DGP\3DGP.27\DIRECTXTK-MASTER\SRC\SHADERS\COMPILED\BASICEFFECT_VSBASICPIXELLIGHTINGVC.INC
C:\USERS\11327\DESKTOP\SVN REPOSITORY\3DGP\3DGP.27\DIRECTXTK-MASTER\SRC\SHADERS\COMPILED\BASICEFFECT_VSBASICPIXELLIGHTINGTX.INC
C:\USERS\11327\DESKTOP\SVN REPOSITORY\3DGP\3DGP.27\DIRECTXTK-MASTER\SRC\SHADERS\COMPILED\BASICEFFECT_VSBASICPIXELLIGHTINGTXVC.INC
C:\USERS\11327\DESKTOP\SVN REPOSITORY\3DGP\3DGP.27\DIRECTXTK-MASTER\SRC\SHADERS\COMPILED\BASICEFFECT_VSBASICVERTEXLIGHTINGBN.INC
C:\USERS\11327\DESKTOP\SVN REPOSITORY\3DGP\3DGP.27\DIRECTXTK-MASTER\SRC\SHADERS\COMPILED\BASICEFFECT_VSBASICVERTEXLIGHTINGVCBN.INC
C:\USERS\11327\DESKTOP\SVN REPOSITORY\3DGP\3DGP.27\DIRECTXTK-MASTER\SRC\SHADERS\COMPILED\BASICEFFECT_VSBASICVERTEXLIGHTINGTXBN.INC
C:\USERS\11327\DESKTOP\SVN REPOSITORY\3DGP\3DGP.27\DIRECTXTK-MASTER\SRC\SHADERS\COMPILED\BASICEFFECT_VSBASICVERTEXLIGHTINGTXVCBN.INC
C:\USERS\11327\DESKTOP\SVN REPOSITORY\3DGP\3DGP.27\DIRECTXTK-MASTER\SRC\SHADERS\COMPILED\BASICEFFECT_VSBASICONELIGHTBN.INC
C:\USERS\11327\DESKTOP\SVN REPOSITORY\3DGP\3DGP.27\DIRECTXTK-MASTER\SRC\SHADERS\COMPILED\BASICEFFECT_VSBASICONELIGHTVCBN.INC
C:\USERS\11327\DESKTOP\SVN REPOSITORY\3DGP\3DGP.27\DIRECTXTK-MASTER\SRC\SHADERS\COMPILED\BASICEFFECT_VSBASICONELIGHTTXBN.INC
C:\USERS\11327\DESKTOP\SVN REPOSITORY\3DGP\3DGP.27\DIRECTXTK-MASTER\SRC\SHADERS\COMPILED\BASICEFFECT_VSBASICONELIGHTTXVCBN.INC
C:\USERS\11327\DESKTOP\SVN REPOSITORY\3DGP\3DGP.27\DIRECTXTK-MASTER\SRC\SHADERS\COMPILED\BASICEFFECT_VSBASICPIXELLIGHTINGBN.INC
C:\USERS\11327\DESKTOP\SVN REPOSITORY\3DGP\3DGP.27\DIRECTXTK-MASTER\SRC\SHADERS\COMPILED\BASICEFFECT_VSBASICPIXELLIGHTINGVCBN.INC
C:\USERS\11327\DESKTOP\SVN REPOSITORY\3DGP\3DGP.27\DIRECTXTK-MASTER\SRC\SHADERS\COMPILED\BASICEFFECT_VSBASICPIXELLIGHTINGTXBN.INC
C:\USERS\11327\DESKTOP\SVN REPOSITORY\3DGP\3DGP.27\DIRECTXTK-MASTER\SRC\SHADERS\COMPILED\BASICEFFECT_VSBASICPIXELLIGHTINGTXVCBN.INC
C:\USERS\11327\DESKTOP\SVN REPOSITORY\3DGP\3DGP.27\DIRECTXTK-MASTER\SRC\SHADERS\COMPILED\BASICEFFECT_PSBASIC.INC
C:\USERS\11327\DESKTOP\SVN REPOSITORY\3DGP\3DGP.27\DIRECTXTK-MASTER\SRC\SHADERS\COMPILED\BASICEFFECT_PSBASICNOFOG.INC
C:\USERS\11327\DESKTOP\SVN REPOSITORY\3DGP\3DGP.27\DIRECTXTK-MASTER\SRC\SHADERS\COMPILED\BASICEFFECT_PSBASICTX.INC
C:\USERS\11327\DESKTOP\SVN REPOSITORY\3DGP\3DGP.27\DIRECTXTK-MASTER\SRC\SHADERS\COMPILED\BASICEFFECT_PSBASICTXNOFOG.INC
C:\USERS\11327\DESKTOP\SVN REPOSITORY\3DGP\3DGP.27\DIRECTXTK-MASTER\SRC\SHADERS\COMPILED\BASICEFFECT_PSBASICVERTEXLIGHTING.INC
C:\USERS\11327\DESKTOP\SVN REPOSITORY\3DGP\3DGP.27\DIRECTXTK-MASTER\SRC\SHADERS\COMPILED\BASICEFFECT_PSBASICVERTEXLIGHTINGNOFOG.INC
C:\USERS\11327\DESKTOP\SVN REPOSITORY\3DGP\3DGP.27\DIRECTXTK-MASTER\SRC\SHADERS\COMPILED\BASICEFFECT_PSBASICVERTEXLIGHTINGTX.INC
C:\USERS\11327\DESKTOP\SVN REPOSITORY\3DGP\3DGP.27\DIRECTXTK-MASTER\SRC\SHADERS\COMPILED\BASICEFFECT_PSBASICVERTEXLIGHTINGTXNOFOG.INC
C:\USERS\11327\DESKTOP\SVN REPOSITORY\3DGP\3DGP.27\DIRECTXTK-MASTER\SRC\SHADERS\COMPILED\BASICEFFECT_PSBASICPIXELLIGHTING.INC
C:\USERS\11327\DESKTOP\SVN REPOSITORY\3DGP\3DGP.27\DIRECTXTK-MASTER\SRC\SHADERS\COMPILED\BASICEFFECT_PSBASICPIXELLIGHTINGTX.INC
^C:\USERS\11327\DESKTOP\SVN REPOSITORY\3DGP\3DGP.27\DIRECTXTK-MASTER\SRC\COMMONSTATES.CPP
C:\USERS\11327\DESKTOP\SVN REPOSITORY\3DGP\3DGP.27\DIRECTXTK-MASTER\BIN\DESKTOP_2015\WIN32\RELEASE\DIRECTXTK.PCH
C:\USERS\11327\DESKTOP\SVN REPOSITORY\3DGP\3DGP.27\DIRECTXTK-MASTER\INC\COMMONSTATES.H
C:\USERS\11327\DESKTOP\SVN REPOSITORY\3DGP\3DGP.27\DIRECTXTK-MASTER\SRC\DEMANDCREATE.H
C:\USERS\11327\DESKTOP\SVN REPOSITORY\3DGP\3DGP.27\DIRECTXTK-MASTER\SRC\PLATFORMHELPERS.H
C:\PROGRAM FILES (X86)\MICROSOFT VISUAL STUDIO 14.0\VC\INCLUDE\MUTEX
C:\PROGRAM FILES (X86)\MICROSOFT VISUAL STUDIO 14.0\VC\INCLUDE\CHRONO
C:\PROGRAM FILES (X86)\MICROSOFT VISUAL STUDIO 14.0\VC\INCLUDE\RATIO
C:\PROGRAM FILES (X86)\WINDOWS KITS\10\INCLUDE\10.0.10240.0\UCRT\TIME.H
C:\PROGRAM FILES (X86)\MICROSOFT VISUAL STUDIO 14.0\VC\INCLUDE\THR\XTIMEC.H
C:\PROGRAM FILES (X86)\MICROSOFT VISUAL STUDIO 14.0\VC\INCLUDE\THR\XTHRCOMMON.H
C:\PROGRAM FILES (X86)\MICROSOFT VISUAL STUDIO 14.0\VC\INCLUDE\FUNCTIONAL
C:\PROGRAM FILES (X86)\MICROSOFT VISUAL STUDIO 14.0\VC\INCLUDE\XFUNCTIONAL
C:\PROGRAM FILES (X86)\MICROSOFT VISUAL STUDIO 14.0\VC\INCLUDE\THREAD
C:\PROGRAM FILES (X86)\MICROSOFT VISUAL STUDIO 14.0\VC\INCLUDE\THR\XTHREAD
C:\PROGRAM FILES (X86)\MICROSOFT VISUAL STUDIO 14.0\VC\INCLUDE\THR\XTIME
C:\PROGRAM FILES (X86)\MICROSOFT VISUAL STUDIO 14.0\VC\INCLUDE\THR\XTHREADS.H
C:\USERS\11327\DESKTOP\SVN REPOSITORY\3DGP\3DGP.27\DIRECTXTK-MASTER\INC\DIRECTXHELPERS.H
C:\USERS\11327\DESKTOP\SVN REPOSITORY\3DGP\3DGP.27\DIRECTXTK-MASTER\SRC\SHAREDRESOURCEPOOL.H
^C:\USERS\11327\DESKTOP\SVN REPOSITORY\3DGP\3DGP.27\DIRECTXTK-MASTER\SRC\DDSTEXTURELOADER.CPP
C:\USERS\11327\DESKTOP\SVN REPOSITORY\3DGP\3DGP.27\DIRECTXTK-MASTER\BIN\DESKTOP_2015\WIN32\RELEASE\DIRECTXTK.PCH
C:\USERS\11327\DESKTOP\SVN REPOSITORY\3DGP\3DGP.27\DIRECTXTK-MASTER\INC\DDSTEXTURELOADER.H
C:\USERS\11327\DESKTOP\SVN REPOSITORY\3DGP\3DGP.27\DIRECTXTK-MASTER\SRC\DDS.H
C:\USERS\11327\DESKTOP\SVN REPOSITORY\3DGP\3DGP.27\DIRECTXTK-MASTER\INC\DIRECTXHELPERS.H
C:\USERS\11327\DESKTOP\SVN REPOSITORY\3DGP\3DGP.27\DIRECTXTK-MASTER\SRC\PLATFORMHELPERS.H
C:\PROGRAM FILES (X86)\MICROSOFT VISUAL STUDIO 14.0\VC\INCLUDE\MUTEX
C:\PROGRAM FILES (X86)\MICROSOFT VISUAL STUDIO 14.0\VC\INCLUDE\CHRONO
C:\PROGRAM FILES (X86)\MICROSOFT VISUAL STUDIO 14.0\VC\INCLUDE\RATIO
C:\PROGRAM FILES (X86)\WINDOWS KITS\10\INCLUDE\10.0.10240.0\UCRT\TIME.H
C:\PROGRAM FILES (X86)\MICROSOFT VISUAL STUDIO 14.0\VC\INCLUDE\THR\XTIMEC.H
C:\PROGRAM FILES (X86)\MICROSOFT VISUAL STUDIO 14.0\VC\INCLUDE\THR\XTHRCOMMON.H
C:\PROGRAM FILES (X86)\MICROSOFT VISUAL STUDIO 14.0\VC\INCLUDE\FUNCTIONAL
C:\PROGRAM FILES (X86)\MICROSOFT VISUAL STUDIO 14.0\VC\INCLUDE\XFUNCTIONAL
C:\PROGRAM FILES (X86)\MICROSOFT VISUAL STUDIO 14.0\VC\INCLUDE\THREAD
C:\PROGRAM FILES (X86)\MICROSOFT VISUAL STUDIO 14.0\VC\INCLUDE\THR\XTHREAD
C:\PROGRAM FILES (X86)\MICROSOFT VISUAL STUDIO 14.0\VC\INCLUDE\THR\XTIME
C:\PROGRAM FILES (X86)\MICROSOFT VISUAL STUDIO 14.0\VC\INCLUDE\THR\XTHREADS.H
C:\USERS\11327\DESKTOP\SVN REPOSITORY\3DGP\3DGP.27\DIRECTXTK-MASTER\SRC\LOADERHELPERS.H
^C:\USERS\11327\DESKTOP\SVN REPOSITORY\3DGP\3DGP.27\DIRECTXTK-MASTER\SRC\DGSLEFFECT.CPP
C:\USERS\11327\DESKTOP\SVN REPOSITORY\3DGP\3DGP.27\DIRECTXTK-MASTER\BIN\DESKTOP_2015\WIN32\RELEASE\DIRECTXTK.PCH
C:\USERS\11327\DESKTOP\SVN REPOSITORY\3DGP\3DGP.27\DIRECTXTK-MASTER\SRC\EFFECTCOMMON.H
C:\USERS\11327\DESKTOP\SVN REPOSITORY\3DGP\3DGP.27\DIRECTXTK-MASTER\INC\EFFECTS.H
C:\USERS\11327\DESKTOP\SVN REPOSITORY\3DGP\3DGP.27\DIRECTXTK-MASTER\SRC\PLATFORMHELPERS.H
C:\PROGRAM FILES (X86)\MICROSOFT VISUAL STUDIO 14.0\VC\INCLUDE\MUTEX
C:\PROGRAM FILES (X86)\MICROSOFT VISUAL STUDIO 14.0\VC\INCLUDE\CHRONO
C:\PROGRAM FILES (X86)\MICROSOFT VISUAL STUDIO 14.0\VC\INCLUDE\RATIO
C:\PROGRAM FILES (X86)\WINDOWS KITS\10\INCLUDE\10.0.10240.0\UCRT\TIME.H
C:\PROGRAM FILES (X86)\MICROSOFT VISUAL STUDIO 14.0\VC\INCLUDE\THR\XTIMEC.H
C:\PROGRAM FILES (X86)\MICROSOFT VISUAL STUDIO 14.0\VC\INCLUDE\THR\XTHRCOMMON.H
C:\PROGRAM FILES (X86)\MICROSOFT VISUAL STUDIO 14.0\VC\INCLUDE\FUNCTIONAL
C:\PROGRAM FILES (X86)\MICROSOFT VISUAL STUDIO 14.0\VC\INCLUDE\XFUNCTIONAL
C:\PROGRAM FILES (X86)\MICROSOFT VISUAL STUDIO 14.0\VC\INCLUDE\THREAD
C:\PROGRAM FILES (X86)\MICROSOFT VISUAL STUDIO 14.0\VC\INCLUDE\THR\XTHREAD
C:\PROGRAM FILES (X86)\MICROSOFT VISUAL STUDIO 14.0\VC\INCLUDE\THR\XTIME
C:\PROGRAM FILES (X86)\MICROSOFT VISUAL STUDIO 14.0\VC\INCLUDE\THR\XTHREADS.H
C:\USERS\11327\DESKTOP\SVN REPOSITORY\3DGP\3DGP.27\DIRECTXTK-MASTER\SRC\CONSTANTBUFFER.H
C:\USERS\11327\DESKTOP\SVN REPOSITORY\3DGP\3DGP.27\DIRECTXTK-MASTER\INC\DIRECTXHELPERS.H
C:\USERS\11327\DESKTOP\SVN REPOSITORY\3DGP\3DGP.27\DIRECTXTK-MASTER\INC\GRAPHICSMEMORY.H
C:\USERS\11327\DESKTOP\SVN REPOSITORY\3DGP\3DGP.27\DIRECTXTK-MASTER\SRC\SHAREDRESOURCEPOOL.H
C:\USERS\11327\DESKTOP\SVN REPOSITORY\3DGP\3DGP.27\DIRECTXTK-MASTER\SRC\ALIGNEDNEW.H
C:\USERS\11327\DESKTOP\SVN REPOSITORY\3DGP\3DGP.27\DIRECTXTK-MASTER\SRC\DEMANDCREATE.H
C:\USERS\11327\DESKTOP\SVN REPOSITORY\3DGP\3DGP.27\DIRECTXTK-MASTER\SRC\SHADERS\COMPILED\DGSLEFFECT_MAIN.INC
C:\USERS\11327\DESKTOP\SVN REPOSITORY\3DGP\3DGP.27\DIRECTXTK-MASTER\SRC\SHADERS\COMPILED\DGSLEFFECT_MAINVC.INC
C:\USERS\11327\DESKTOP\SVN REPOSITORY\3DGP\3DGP.27\DIRECTXTK-MASTER\SRC\SHADERS\COMPILED\DGSLEFFECT_MAIN1BONES.INC
C:\USERS\11327\DESKTOP\SVN REPOSITORY\3DGP\3DGP.27\DIRECTXTK-MASTER\SRC\SHADERS\COMPILED\DGSLEFFECT_MAIN1BONESVC.INC
C:\USERS\11327\DESKTOP\SVN REPOSITORY\3DGP\3DGP.27\DIRECTXTK-MASTER\SRC\SHADERS\COMPILED\DGSLEFFECT_MAIN2BONES.INC
C:\USERS\11327\DESKTOP\SVN REPOSITORY\3DGP\3DGP.27\DIRECTXTK-MASTER\SRC\SHADERS\COMPILED\DGSLEFFECT_MAIN2BONESVC.INC
C:\USERS\11327\DESKTOP\SVN REPOSITORY\3DGP\3DGP.27\DIRECTXTK-MASTER\SRC\SHADERS\COMPILED\DGSLEFFECT_MAIN4BONES.INC
C:\USERS\11327\DESKTOP\SVN REPOSITORY\3DGP\3DGP.27\DIRECTXTK-MASTER\SRC\SHADERS\COMPILED\DGSLEFFECT_MAIN4BONESVC.INC
C:\USERS\11327\DESKTOP\SVN REPOSITORY\3DGP\3DGP.27\DIRECTXTK-MASTER\SRC\SHADERS\COMPILED\DGSLUNLIT_MAIN.INC
C:\USERS\11327\DESKTOP\SVN REPOSITORY\3DGP\3DGP.27\DIRECTXTK-MASTER\SRC\SHADERS\COMPILED\DGSLLAMBERT_MAIN.INC
C:\USERS\11327\DESKTOP\SVN REPOSITORY\3DGP\3DGP.27\DIRECTXTK-MASTER\SRC\SHADERS\COMPILED\DGSLPHONG_MAIN.INC
C:\USERS\11327\DESKTOP\SVN REPOSITORY\3DGP\3DGP.27\DIRECTXTK-MASTER\SRC\SHADERS\COMPILED\DGSLUNLIT_MAINTK.INC
C:\USERS\11327\DESKTOP\SVN REPOSITORY\3DGP\3DGP.27\DIRECTXTK-MASTER\SRC\SHADERS\COMPILED\DGSLLAMBERT_MAINTK.INC
C:\USERS\11327\DESKTOP\SVN REPOSITORY\3DGP\3DGP.27\DIRECTXTK-MASTER\SRC\SHADERS\COMPILED\DGSLPHONG_MAINTK.INC
C:\USERS\11327\DESKTOP\SVN REPOSITORY\3DGP\3DGP.27\DIRECTXTK-MASTER\SRC\SHADERS\COMPILED\DGSLUNLIT_MAINTX.INC
C:\USERS\11327\DESKTOP\SVN REPOSITORY\3DGP\3DGP.27\DIRECTXTK-MASTER\SRC\SHADERS\COMPILED\DGSLLAMBERT_MAINTX.INC
C:\USERS\11327\DESKTOP\SVN REPOSITORY\3DGP\3DGP.27\DIRECTXTK-MASTER\SRC\SHADERS\COMPILED\DGSLPHONG_MAINTX.INC
C:\USERS\11327\DESKTOP\SVN REPOSITORY\3DGP\3DGP.27\DIRECTXTK-MASTER\SRC\SHADERS\COMPILED\DGSLUNLIT_MAINTXTK.INC
C:\USERS\11327\DESKTOP\SVN REPOSITORY\3DGP\3DGP.27\DIRECTXTK-MASTER\SRC\SHADERS\COMPILED\DGSLLAMBERT_MAINTXTK.INC
C:\USERS\11327\DESKTOP\SVN REPOSITORY\3DGP\3DGP.27\DIRECTXTK-MASTER\SRC\SHADERS\COMPILED\DGSLPHONG_MAINTXTK.INC
^C:\USERS\11327\DESKTOP\SVN REPOSITORY\3DGP\3DGP.27\DIRECTXTK-MASTER\SRC\DGSLEFFECTFACTORY.CPP
C:\USERS\11327\DESKTOP\SVN REPOSITORY\3DGP\3DGP.27\DIRECTXTK-MASTER\BIN\DESKTOP_2015\WIN32\RELEASE\DIRECTXTK.PCH
C:\USERS\11327\DESKTOP\SVN REPOSITORY\3DGP\3DGP.27\DIRECTXTK-MASTER\INC\EFFECTS.H
C:\USERS\11327\DESKTOP\SVN REPOSITORY\3DGP\3DGP.27\DIRECTXTK-MASTER\SRC\DEMANDCREATE.H
C:\USERS\11327\DESKTOP\SVN REPOSITORY\3DGP\3DGP.27\DIRECTXTK-MASTER\SRC\PLATFORMHELPERS.H
C:\PROGRAM FILES (X86)\MICROSOFT VISUAL STUDIO 14.0\VC\INCLUDE\MUTEX
C:\PROGRAM FILES (X86)\MICROSOFT VISUAL STUDIO 14.0\VC\INCLUDE\CHRONO
C:\PROGRAM FILES (X86)\MICROSOFT VISUAL STUDIO 14.0\VC\INCLUDE\RATIO
C:\PROGRAM FILES (X86)\WINDOWS KITS\10\INCLUDE\10.0.10240.0\UCRT\TIME.H
C:\PROGRAM FILES (X86)\MICROSOFT VISUAL STUDIO 14.0\VC\INCLUDE\THR\XTIMEC.H
C:\PROGRAM FILES (X86)\MICROSOFT VISUAL STUDIO 14.0\VC\INCLUDE\THR\XTHRCOMMON.H
C:\PROGRAM FILES (X86)\MICROSOFT VISUAL STUDIO 14.0\VC\INCLUDE\FUNCTIONAL
C:\PROGRAM FILES (X86)\MICROSOFT VISUAL STUDIO 14.0\VC\INCLUDE\XFUNCTIONAL
C:\PROGRAM FILES (X86)\MICROSOFT VISUAL STUDIO 14.0\VC\INCLUDE\THREAD
C:\PROGRAM FILES (X86)\MICROSOFT VISUAL STUDIO 14.0\VC\INCLUDE\THR\XTHREAD
C:\PROGRAM FILES (X86)\MICROSOFT VISUAL STUDIO 14.0\VC\INCLUDE\THR\XTIME
C:\PROGRAM FILES (X86)\MICROSOFT VISUAL STUDIO 14.0\VC\INCLUDE\THR\XTHREADS.H
C:\USERS\11327\DESKTOP\SVN REPOSITORY\3DGP\3DGP.27\DIRECTXTK-MASTER\SRC\SHAREDRESOURCEPOOL.H
C:\USERS\11327\DESKTOP\SVN REPOSITORY\3DGP\3DGP.27\DIRECTXTK-MASTER\INC\DDSTEXTURELOADER.H
C:\USERS\11327\DESKTOP\SVN REPOSITORY\3DGP\3DGP.27\DIRECTXTK-MASTER\INC\WICTEXTURELOADER.H
C:\USERS\11327\DESKTOP\SVN REPOSITORY\3DGP\3DGP.27\DIRECTXTK-MASTER\SRC\BINARYREADER.H
^C:\USERS\11327\DESKTOP\SVN REPOSITORY\3DGP\3DGP.27\DIRECTXTK-MASTER\SRC\DUALTEXTUREEFFECT.CPP
C:\USERS\11327\DESKTOP\SVN REPOSITORY\3DGP\3DGP.27\DIRECTXTK-MASTER\BIN\DESKTOP_2015\WIN32\RELEASE\DIRECTXTK.PCH
C:\USERS\11327\DESKTOP\SVN REPOSITORY\3DGP\3DGP.27\DIRECTXTK-MASTER\SRC\EFFECTCOMMON.H
C:\USERS\11327\DESKTOP\SVN REPOSITORY\3DGP\3DGP.27\DIRECTXTK-MASTER\INC\EFFECTS.H
C:\USERS\11327\DESKTOP\SVN REPOSITORY\3DGP\3DGP.27\DIRECTXTK-MASTER\SRC\PLATFORMHELPERS.H
C:\PROGRAM FILES (X86)\MICROSOFT VISUAL STUDIO 14.0\VC\INCLUDE\MUTEX
C:\PROGRAM FILES (X86)\MICROSOFT VISUAL STUDIO 14.0\VC\INCLUDE\CHRONO
C:\PROGRAM FILES (X86)\MICROSOFT VISUAL STUDIO 14.0\VC\INCLUDE\RATIO
C:\PROGRAM FILES (X86)\WINDOWS KITS\10\INCLUDE\10.0.10240.0\UCRT\TIME.H
C:\PROGRAM FILES (X86)\MICROSOFT VISUAL STUDIO 14.0\VC\INCLUDE\THR\XTIMEC.H
C:\PROGRAM FILES (X86)\MICROSOFT VISUAL STUDIO 14.0\VC\INCLUDE\THR\XTHRCOMMON.H
C:\PROGRAM FILES (X86)\MICROSOFT VISUAL STUDIO 14.0\VC\INCLUDE\FUNCTIONAL
C:\PROGRAM FILES (X86)\MICROSOFT VISUAL STUDIO 14.0\VC\INCLUDE\XFUNCTIONAL
C:\PROGRAM FILES (X86)\MICROSOFT VISUAL STUDIO 14.0\VC\INCLUDE\THREAD
C:\PROGRAM FILES (X86)\MICROSOFT VISUAL STUDIO 14.0\VC\INCLUDE\THR\XTHREAD
C:\PROGRAM FILES (X86)\MICROSOFT VISUAL STUDIO 14.0\VC\INCLUDE\THR\XTIME
C:\PROGRAM FILES (X86)\MICROSOFT VISUAL STUDIO 14.0\VC\INCLUDE\THR\XTHREADS.H
C:\USERS\11327\DESKTOP\SVN REPOSITORY\3DGP\3DGP.27\DIRECTXTK-MASTER\SRC\CONSTANTBUFFER.H
C:\USERS\11327\DESKTOP\SVN REPOSITORY\3DGP\3DGP.27\DIRECTXTK-MASTER\INC\DIRECTXHELPERS.H
C:\USERS\11327\DESKTOP\SVN REPOSITORY\3DGP\3DGP.27\DIRECTXTK-MASTER\INC\GRAPHICSMEMORY.H
C:\USERS\11327\DESKTOP\SVN REPOSITORY\3DGP\3DGP.27\DIRECTXTK-MASTER\SRC\SHAREDRESOURCEPOOL.H
C:\USERS\11327\DESKTOP\SVN REPOSITORY\3DGP\3DGP.27\DIRECTXTK-MASTER\SRC\ALIGNEDNEW.H
C:\USERS\11327\DESKTOP\SVN REPOSITORY\3DGP\3DGP.27\DIRECTXTK-MASTER\SRC\SHADERS\COMPILED\DUALTEXTUREEFFECT_VSDUALTEXTURE.INC
C:\USERS\11327\DESKTOP\SVN REPOSITORY\3DGP\3DGP.27\DIRECTXTK-MASTER\SRC\SHADERS\COMPILED\DUALTEXTUREEFFECT_VSDUALTEXTURENOFOG.INC
C:\USERS\11327\DESKTOP\SVN REPOSITORY\3DGP\3DGP.27\DIRECTXTK-MASTER\SRC\SHADERS\COMPILED\DUALTEXTUREEFFECT_VSDUALTEXTUREVC.INC
C:\USERS\11327\DESKTOP\SVN REPOSITORY\3DGP\3DGP.27\DIRECTXTK-MASTER\SRC\SHADERS\COMPILED\DUALTEXTUREEFFECT_VSDUALTEXTUREVCNOFOG.INC
C:\USERS\11327\DESKTOP\SVN REPOSITORY\3DGP\3DGP.27\DIRECTXTK-MASTER\SRC\SHADERS\COMPILED\DUALTEXTUREEFFECT_PSDUALTEXTURE.INC
C:\USERS\11327\DESKTOP\SVN REPOSITORY\3DGP\3DGP.27\DIRECTXTK-MASTER\SRC\SHADERS\COMPILED\DUALTEXTUREEFFECT_PSDUALTEXTURENOFOG.INC
^C:\USERS\11327\DESKTOP\SVN REPOSITORY\3DGP\3DGP.27\DIRECTXTK-MASTER\SRC\BINARYREADER.CPP
C:\USERS\11327\DESKTOP\SVN REPOSITORY\3DGP\3DGP.27\DIRECTXTK-MASTER\BIN\DESKTOP_2015\WIN32\RELEASE\DIRECTXTK.PCH
C:\USERS\11327\DESKTOP\SVN REPOSITORY\3DGP\3DGP.27\DIRECTXTK-MASTER\SRC\BINARYREADER.H
C:\USERS\11327\DESKTOP\SVN REPOSITORY\3DGP\3DGP.27\DIRECTXTK-MASTER\SRC\PLATFORMHELPERS.H
C:\PROGRAM FILES (X86)\MICROSOFT VISUAL STUDIO 14.0\VC\INCLUDE\MUTEX
C:\PROGRAM FILES (X86)\MICROSOFT VISUAL STUDIO 14.0\VC\INCLUDE\CHRONO
C:\PROGRAM FILES (X86)\MICROSOFT VISUAL STUDIO 14.0\VC\INCLUDE\RATIO
C:\PROGRAM FILES (X86)\WINDOWS KITS\10\INCLUDE\10.0.10240.0\UCRT\TIME.H
C:\PROGRAM FILES (X86)\MICROSOFT VISUAL STUDIO 14.0\VC\INCLUDE\THR\XTIMEC.H
C:\PROGRAM FILES (X86)\MICROSOFT VISUAL STUDIO 14.0\VC\INCLUDE\THR\XTHRCOMMON.H
C:\PROGRAM FILES (X86)\MICROSOFT VISUAL STUDIO 14.0\VC\INCLUDE\FUNCTIONAL
C:\PROGRAM FILES (X86)\MICROSOFT VISUAL STUDIO 14.0\VC\INCLUDE\XFUNCTIONAL
C:\PROGRAM FILES (X86)\MICROSOFT VISUAL STUDIO 14.0\VC\INCLUDE\THREAD
C:\PROGRAM FILES (X86)\MICROSOFT VISUAL STUDIO 14.0\VC\INCLUDE\THR\XTHREAD
C:\PROGRAM FILES (X86)\MICROSOFT VISUAL STUDIO 14.0\VC\INCLUDE\THR\XTIME
C:\PROGRAM FILES (X86)\MICROSOFT VISUAL STUDIO 14.0\VC\INCLUDE\THR\XTHREADS.H
^C:\USERS\11327\DESKTOP\SVN REPOSITORY\3DGP\3DGP.27\DIRECTXTK-MASTER\SRC\EFFECTCOMMON.CPP
C:\USERS\11327\DESKTOP\SVN REPOSITORY\3DGP\3DGP.27\DIRECTXTK-MASTER\BIN\DESKTOP_2015\WIN32\RELEASE\DIRECTXTK.PCH
C:\USERS\11327\DESKTOP\SVN REPOSITORY\3DGP\3DGP.27\DIRECTXTK-MASTER\SRC\EFFECTCOMMON.H
C:\USERS\11327\DESKTOP\SVN REPOSITORY\3DGP\3DGP.27\DIRECTXTK-MASTER\INC\EFFECTS.H
C:\USERS\11327\DESKTOP\SVN REPOSITORY\3DGP\3DGP.27\DIRECTXTK-MASTER\SRC\PLATFORMHELPERS.H
C:\PROGRAM FILES (X86)\MICROSOFT VISUAL STUDIO 14.0\VC\INCLUDE\MUTEX
C:\PROGRAM FILES (X86)\MICROSOFT VISUAL STUDIO 14.0\VC\INCLUDE\CHRONO
C:\PROGRAM FILES (X86)\MICROSOFT VISUAL STUDIO 14.0\VC\INCLUDE\RATIO
C:\PROGRAM FILES (X86)\WINDOWS KITS\10\INCLUDE\10.0.10240.0\UCRT\TIME.H
C:\PROGRAM FILES (X86)\MICROSOFT VISUAL STUDIO 14.0\VC\INCLUDE\THR\XTIMEC.H
C:\PROGRAM FILES (X86)\MICROSOFT VISUAL STUDIO 14.0\VC\INCLUDE\THR\XTHRCOMMON.H
C:\PROGRAM FILES (X86)\MICROSOFT VISUAL STUDIO 14.0\VC\INCLUDE\FUNCTIONAL
C:\PROGRAM FILES (X86)\MICROSOFT VISUAL STUDIO 14.0\VC\INCLUDE\XFUNCTIONAL
C:\PROGRAM FILES (X86)\MICROSOFT VISUAL STUDIO 14.0\VC\INCLUDE\THREAD
C:\PROGRAM FILES (X86)\MICROSOFT VISUAL STUDIO 14.0\VC\INCLUDE\THR\XTHREAD
C:\PROGRAM FILES (X86)\MICROSOFT VISUAL STUDIO 14.0\VC\INCLUDE\THR\XTIME
C:\PROGRAM FILES (X86)\MICROSOFT VISUAL STUDIO 14.0\VC\INCLUDE\THR\XTHREADS.H
C:\USERS\11327\DESKTOP\SVN REPOSITORY\3DGP\3DGP.27\DIRECTXTK-MASTER\SRC\CONSTANTBUFFER.H
C:\USERS\11327\DESKTOP\SVN REPOSITORY\3DGP\3DGP.27\DIRECTXTK-MASTER\INC\DIRECTXHELPERS.H
C:\USERS\11327\DESKTOP\SVN REPOSITORY\3DGP\3DGP.27\DIRECTXTK-MASTER\INC\GRAPHICSMEMORY.H
C:\USERS\11327\DESKTOP\SVN REPOSITORY\3DGP\3DGP.27\DIRECTXTK-MASTER\SRC\SHAREDRESOURCEPOOL.H
C:\USERS\11327\DESKTOP\SVN REPOSITORY\3DGP\3DGP.27\DIRECTXTK-MASTER\SRC\ALIGNEDNEW.H
C:\USERS\11327\DESKTOP\SVN REPOSITORY\3DGP\3DGP.27\DIRECTXTK-MASTER\SRC\DEMANDCREATE.H
^C:\USERS\11327\DESKTOP\SVN REPOSITORY\3DGP\3DGP.27\DIRECTXTK-MASTER\SRC\EFFECTFACTORY.CPP
C:\USERS\11327\DESKTOP\SVN REPOSITORY\3DGP\3DGP.27\DIRECTXTK-MASTER\BIN\DESKTOP_2015\WIN32\RELEASE\DIRECTXTK.PCH
C:\USERS\11327\DESKTOP\SVN REPOSITORY\3DGP\3DGP.27\DIRECTXTK-MASTER\INC\EFFECTS.H
C:\USERS\11327\DESKTOP\SVN REPOSITORY\3DGP\3DGP.27\DIRECTXTK-MASTER\SRC\DEMANDCREATE.H
C:\USERS\11327\DESKTOP\SVN REPOSITORY\3DGP\3DGP.27\DIRECTXTK-MASTER\SRC\PLATFORMHELPERS.H
C:\PROGRAM FILES (X86)\MICROSOFT VISUAL STUDIO 14.0\VC\INCLUDE\MUTEX
C:\PROGRAM FILES (X86)\MICROSOFT VISUAL STUDIO 14.0\VC\INCLUDE\CHRONO
C:\PROGRAM FILES (X86)\MICROSOFT VISUAL STUDIO 14.0\VC\INCLUDE\RATIO
C:\PROGRAM FILES (X86)\WINDOWS KITS\10\INCLUDE\10.0.10240.0\UCRT\TIME.H
C:\PROGRAM FILES (X86)\MICROSOFT VISUAL STUDIO 14.0\VC\INCLUDE\THR\XTIMEC.H
C:\PROGRAM FILES (X86)\MICROSOFT VISUAL STUDIO 14.0\VC\INCLUDE\THR\XTHRCOMMON.H
C:\PROGRAM FILES (X86)\MICROSOFT VISUAL STUDIO 14.0\VC\INCLUDE\FUNCTIONAL
C:\PROGRAM FILES (X86)\MICROSOFT VISUAL STUDIO 14.0\VC\INCLUDE\XFUNCTIONAL
C:\PROGRAM FILES (X86)\MICROSOFT VISUAL STUDIO 14.0\VC\INCLUDE\THREAD
C:\PROGRAM FILES (X86)\MICROSOFT VISUAL STUDIO 14.0\VC\INCLUDE\THR\XTHREAD
C:\PROGRAM FILES (X86)\MICROSOFT VISUAL STUDIO 14.0\VC\INCLUDE\THR\XTIME
C:\PROGRAM FILES (X86)\MICROSOFT VISUAL STUDIO 14.0\VC\INCLUDE\THR\XTHREADS.H
C:\USERS\11327\DESKTOP\SVN REPOSITORY\3DGP\3DGP.27\DIRECTXTK-MASTER\SRC\SHAREDRESOURCEPOOL.H
C:\USERS\11327\DESKTOP\SVN REPOSITORY\3DGP\3DGP.27\DIRECTXTK-MASTER\INC\DDSTEXTURELOADER.H
C:\USERS\11327\DESKTOP\SVN REPOSITORY\3DGP\3DGP.27\DIRECTXTK-MASTER\INC\WICTEXTURELOADER.H
^C:\USERS\11327\DESKTOP\SVN REPOSITORY\3DGP\3DGP.27\DIRECTXTK-MASTER\SRC\ENVIRONMENTMAPEFFECT.CPP
C:\USERS\11327\DESKTOP\SVN REPOSITORY\3DGP\3DGP.27\DIRECTXTK-MASTER\BIN\DESKTOP_2015\WIN32\RELEASE\DIRECTXTK.PCH
C:\USERS\11327\DESKTOP\SVN REPOSITORY\3DGP\3DGP.27\DIRECTXTK-MASTER\SRC\EFFECTCOMMON.H
C:\USERS\11327\DESKTOP\SVN REPOSITORY\3DGP\3DGP.27\DIRECTXTK-MASTER\INC\EFFECTS.H
C:\USERS\11327\DESKTOP\SVN REPOSITORY\3DGP\3DGP.27\DIRECTXTK-MASTER\SRC\PLATFORMHELPERS.H
C:\PROGRAM FILES (X86)\MICROSOFT VISUAL STUDIO 14.0\VC\INCLUDE\MUTEX
C:\PROGRAM FILES (X86)\MICROSOFT VISUAL STUDIO 14.0\VC\INCLUDE\CHRONO
C:\PROGRAM FILES (X86)\MICROSOFT VISUAL STUDIO 14.0\VC\INCLUDE\RATIO
C:\PROGRAM FILES (X86)\WINDOWS KITS\10\INCLUDE\10.0.10240.0\UCRT\TIME.H
C:\PROGRAM FILES (X86)\MICROSOFT VISUAL STUDIO 14.0\VC\INCLUDE\THR\XTIMEC.H
C:\PROGRAM FILES (X86)\MICROSOFT VISUAL STUDIO 14.0\VC\INCLUDE\THR\XTHRCOMMON.H
C:\PROGRAM FILES (X86)\MICROSOFT VISUAL STUDIO 14.0\VC\INCLUDE\FUNCTIONAL
C:\PROGRAM FILES (X86)\MICROSOFT VISUAL STUDIO 14.0\VC\INCLUDE\XFUNCTIONAL
C:\PROGRAM FILES (X86)\MICROSOFT VISUAL STUDIO 14.0\VC\INCLUDE\THREAD
C:\PROGRAM FILES (X86)\MICROSOFT VISUAL STUDIO 14.0\VC\INCLUDE\THR\XTHREAD
C:\PROGRAM FILES (X86)\MICROSOFT VISUAL STUDIO 14.0\VC\INCLUDE\THR\XTIME
C:\PROGRAM FILES (X86)\MICROSOFT VISUAL STUDIO 14.0\VC\INCLUDE\THR\XTHREADS.H
C:\USERS\11327\DESKTOP\SVN REPOSITORY\3DGP\3DGP.27\DIRECTXTK-MASTER\SRC\CONSTANTBUFFER.H
C:\USERS\11327\DESKTOP\SVN REPOSITORY\3DGP\3DGP.27\DIRECTXTK-MASTER\INC\DIRECTXHELPERS.H
C:\USERS\11327\DESKTOP\SVN REPOSITORY\3DGP\3DGP.27\DIRECTXTK-MASTER\INC\GRAPHICSMEMORY.H
C:\USERS\11327\DESKTOP\SVN REPOSITORY\3DGP\3DGP.27\DIRECTXTK-MASTER\SRC\SHAREDRESOURCEPOOL.H
C:\USERS\11327\DESKTOP\SVN REPOSITORY\3DGP\3DGP.27\DIRECTXTK-MASTER\SRC\ALIGNEDNEW.H
C:\USERS\11327\DESKTOP\SVN REPOSITORY\3DGP\3DGP.27\DIRECTXTK-MASTER\SRC\SHADERS\COMPILED\ENVIRONMENTMAPEFFECT_VSENVMAP.INC
C:\USERS\11327\DESKTOP\SVN REPOSITORY\3DGP\3DGP.27\DIRECTXTK-MASTER\SRC\SHADERS\COMPILED\ENVIRONMENTMAPEFFECT_VSENVMAPFRESNEL.INC
C:\USERS\11327\DESKTOP\SVN REPOSITORY\3DGP\3DGP.27\DIRECTXTK-MASTER\SRC\SHADERS\COMPILED\ENVIRONMENTMAPEFFECT_VSENVMAPONELIGHT.INC
C:\USERS\11327\DESKTOP\SVN REPOSITORY\3DGP\3DGP.27\DIRECTXTK-MASTER\SRC\SHADERS\COMPILED\ENVIRONMENTMAPEFFECT_VSENVMAPONELIGHTFRESNEL.INC
C:\USERS\11327\DESKTOP\SVN REPOSITORY\3DGP\3DGP.27\DIRECTXTK-MASTER\SRC\SHADERS\COMPILED\ENVIRONMENTMAPEFFECT_VSENVMAPPIXELLIGHTING.INC
C:\USERS\11327\DESKTOP\SVN REPOSITORY\3DGP\3DGP.27\DIRECTXTK-MASTER\SRC\SHADERS\COMPILED\ENVIRONMENTMAPEFFECT_VSENVMAPBN.INC
C:\USERS\11327\DESKTOP\SVN REPOSITORY\3DGP\3DGP.27\DIRECTXTK-MASTER\SRC\SHADERS\COMPILED\ENVIRONMENTMAPEFFECT_VSENVMAPFRESNELBN.INC
C:\USERS\11327\DESKTOP\SVN REPOSITORY\3DGP\3DGP.27\DIRECTXTK-MASTER\SRC\SHADERS\COMPILED\ENVIRONMENTMAPEFFECT_VSENVMAPONELIGHTBN.INC
C:\USERS\11327\DESKTOP\SVN REPOSITORY\3DGP\3DGP.27\DIRECTXTK-MASTER\SRC\SHADERS\COMPILED\ENVIRONMENTMAPEFFECT_VSENVMAPONELIGHTFRESNELBN.INC
C:\USERS\11327\DESKTOP\SVN REPOSITORY\3DGP\3DGP.27\DIRECTXTK-MASTER\SRC\SHADERS\COMPILED\ENVIRONMENTMAPEFFECT_VSENVMAPPIXELLIGHTINGBN.INC
C:\USERS\11327\DESKTOP\SVN REPOSITORY\3DGP\3DGP.27\DIRECTXTK-MASTER\SRC\SHADERS\COMPILED\ENVIRONMENTMAPEFFECT_PSENVMAP.INC
C:\USERS\11327\DESKTOP\SVN REPOSITORY\3DGP\3DGP.27\DIRECTXTK-MASTER\SRC\SHADERS\COMPILED\ENVIRONMENTMAPEFFECT_PSENVMAPNOFOG.INC
C:\USERS\11327\DESKTOP\SVN REPOSITORY\3DGP\3DGP.27\DIRECTXTK-MASTER\SRC\SHADERS\COMPILED\ENVIRONMENTMAPEFFECT_PSENVMAPSPECULAR.INC
C:\USERS\11327\DESKTOP\SVN REPOSITORY\3DGP\3DGP.27\DIRECTXTK-MASTER\SRC\SHADERS\COMPILED\ENVIRONMENTMAPEFFECT_PSENVMAPSPECULARNOFOG.INC
C:\USERS\11327\DESKTOP\SVN REPOSITORY\3DGP\3DGP.27\DIRECTXTK-MASTER\SRC\SHADERS\COMPILED\ENVIRONMENTMAPEFFECT_PSENVMAPPIXELLIGHTING.INC
C:\USERS\11327\DESKTOP\SVN REPOSITORY\3DGP\3DGP.27\DIRECTXTK-MASTER\SRC\SHADERS\COMPILED\ENVIRONMENTMAPEFFECT_PSENVMAPPIXELLIGHTINGNOFOG.INC
C:\USERS\11327\DESKTOP\SVN REPOSITORY\3DGP\3DGP.27\DIRECTXTK-MASTER\SRC\SHADERS\COMPILED\ENVIRONMENTMAPEFFECT_PSENVMAPPIXELLIGHTINGFRESNEL.INC
C:\USERS\11327\DESKTOP\SVN REPOSITORY\3DGP\3DGP.27\DIRECTXTK-MASTER\SRC\SHADERS\COMPILED\ENVIRONMENTMAPEFFECT_PSENVMAPPIXELLIGHTINGFRESNELNOFOG.INC
^C:\USERS\11327\DESKTOP\SVN REPOSITORY\3DGP\3DGP.27\DIRECTXTK-MASTER\SRC\GAMEPAD.CPP
C:\USERS\11327\DESKTOP\SVN REPOSITORY\3DGP\3DGP.27\DIRECTXTK-MASTER\BIN\DESKTOP_2015\WIN32\RELEASE\DIRECTXTK.PCH
C:\USERS\11327\DESKTOP\SVN REPOSITORY\3DGP\3DGP.27\DIRECTXTK-MASTER\INC\GAMEPAD.H
C:\USERS\11327\DESKTOP\SVN REPOSITORY\3DGP\3DGP.27\DIRECTXTK-MASTER\SRC\PLATFORMHELPERS.H
C:\PROGRAM FILES (X86)\MICROSOFT VISUAL STUDIO 14.0\VC\INCLUDE\MUTEX
C:\PROGRAM FILES (X86)\MICROSOFT VISUAL STUDIO 14.0\VC\INCLUDE\CHRONO
C:\PROGRAM FILES (X86)\MICROSOFT VISUAL STUDIO 14.0\VC\INCLUDE\RATIO
C:\PROGRAM FILES (X86)\WINDOWS KITS\10\INCLUDE\10.0.10240.0\UCRT\TIME.H
C:\PROGRAM FILES (X86)\MICROSOFT VISUAL STUDIO 14.0\VC\INCLUDE\THR\XTIMEC.H
C:\PROGRAM FILES (X86)\MICROSOFT VISUAL STUDIO 14.0\VC\INCLUDE\THR\XTHRCOMMON.H
C:\PROGRAM FILES (X86)\MICROSOFT VISUAL STUDIO 14.0\VC\INCLUDE\FUNCTIONAL
C:\PROGRAM FILES (X86)\MICROSOFT VISUAL STUDIO 14.0\VC\INCLUDE\XFUNCTIONAL
C:\PROGRAM FILES (X86)\MICROSOFT VISUAL STUDIO 14.0\VC\INCLUDE\THREAD
C:\PROGRAM FILES (X86)\MICROSOFT VISUAL STUDIO 14.0\VC\INCLUDE\THR\XTHREAD
C:\PROGRAM FILES (X86)\MICROSOFT VISUAL STUDIO 14.0\VC\INCLUDE\THR\XTIME
C:\PROGRAM FILES (X86)\MICROSOFT VISUAL STUDIO 14.0\VC\INCLUDE\THR\XTHREADS.H
C:\PROGRAM FILES (X86)\WINDOWS KITS\8.1\INCLUDE\UM\XINPUT.H
^C:\USERS\11327\DESKTOP\SVN REPOSITORY\3DGP\3DGP.27\DIRECTXTK-MASTER\SRC\GEOMETRICPRIMITIVE.CPP
C:\USERS\11327\DESKTOP\SVN REPOSITORY\3DGP\3DGP.27\DIRECTXTK-MASTER\BIN\DESKTOP_2015\WIN32\RELEASE\DIRECTXTK.PCH
C:\USERS\11327\DESKTOP\SVN REPOSITORY\3DGP\3DGP.27\DIRECTXTK-MASTER\INC\GEOMETRICPRIMITIVE.H
C:\USERS\11327\DESKTOP\SVN REPOSITORY\3DGP\3DGP.27\DIRECTXTK-MASTER\INC\VERTEXTYPES.H
C:\PROGRAM FILES (X86)\WINDOWS KITS\8.1\INCLUDE\UM\DIRECTXCOLORS.H
C:\PROGRAM FILES (X86)\MICROSOFT VISUAL STUDIO 14.0\VC\INCLUDE\FUNCTIONAL
C:\PROGRAM FILES (X86)\MICROSOFT VISUAL STUDIO 14.0\VC\INCLUDE\XFUNCTIONAL
C:\USERS\11327\DESKTOP\SVN REPOSITORY\3DGP\3DGP.27\DIRECTXTK-MASTER\INC\EFFECTS.H
C:\USERS\11327\DESKTOP\SVN REPOSITORY\3DGP\3DGP.27\DIRECTXTK-MASTER\INC\COMMONSTATES.H
C:\USERS\11327\DESKTOP\SVN REPOSITORY\3DGP\3DGP.27\DIRECTXTK-MASTER\INC\DIRECTXHELPERS.H
C:\USERS\11327\DESKTOP\SVN REPOSITORY\3DGP\3DGP.27\DIRECTXTK-MASTER\SRC\SHAREDRESOURCEPOOL.H
C:\USERS\11327\DESKTOP\SVN REPOSITORY\3DGP\3DGP.27\DIRECTXTK-MASTER\SRC\PLATFORMHELPERS.H
C:\PROGRAM FILES (X86)\MICROSOFT VISUAL STUDIO 14.0\VC\INCLUDE\MUTEX
C:\PROGRAM FILES (X86)\MICROSOFT VISUAL STUDIO 14.0\VC\INCLUDE\CHRONO
C:\PROGRAM FILES (X86)\MICROSOFT VISUAL STUDIO 14.0\VC\INCLUDE\RATIO
C:\PROGRAM FILES (X86)\WINDOWS KITS\10\INCLUDE\10.0.10240.0\UCRT\TIME.H
C:\PROGRAM FILES (X86)\MICROSOFT VISUAL STUDIO 14.0\VC\INCLUDE\THR\XTIMEC.H
C:\PROGRAM FILES (X86)\MICROSOFT VISUAL STUDIO 14.0\VC\INCLUDE\THR\XTHRCOMMON.H
C:\PROGRAM FILES (X86)\MICROSOFT VISUAL STUDIO 14.0\VC\INCLUDE\THREAD
C:\PROGRAM FILES (X86)\MICROSOFT VISUAL STUDIO 14.0\VC\INCLUDE\THR\XTHREAD
C:\PROGRAM FILES (X86)\MICROSOFT VISUAL STUDIO 14.0\VC\INCLUDE\THR\XTIME
C:\PROGRAM FILES (X86)\MICROSOFT VISUAL STUDIO 14.0\VC\INCLUDE\THR\XTHREADS.H
C:\USERS\11327\DESKTOP\SVN REPOSITORY\3DGP\3DGP.27\DIRECTXTK-MASTER\SRC\GEOMETRY.H
^C:\USERS\11327\DESKTOP\SVN REPOSITORY\3DGP\3DGP.27\DIRECTXTK-MASTER\SRC\GEOMETRY.CPP
C:\USERS\11327\DESKTOP\SVN REPOSITORY\3DGP\3DGP.27\DIRECTXTK-MASTER\BIN\DESKTOP_2015\WIN32\RELEASE\DIRECTXTK.PCH
C:\USERS\11327\DESKTOP\SVN REPOSITORY\3DGP\3DGP.27\DIRECTXTK-MASTER\SRC\GEOMETRY.H
C:\USERS\11327\DESKTOP\SVN REPOSITORY\3DGP\3DGP.27\DIRECTXTK-MASTER\INC\VERTEXTYPES.H
C:\USERS\11327\DESKTOP\SVN REPOSITORY\3DGP\3DGP.27\DIRECTXTK-MASTER\SRC\BEZIER.H
C:\USERS\11327\DESKTOP\SVN REPOSITORY\3DGP\3DGP.27\DIRECTXTK-MASTER\SRC\TEAPOTDATA.INC
^C:\USERS\11327\DESKTOP\SVN REPOSITORY\3DGP\3DGP.27\DIRECTXTK-MASTER\SRC\GRAPHICSMEMORY.CPP
C:\USERS\11327\DESKTOP\SVN REPOSITORY\3DGP\3DGP.27\DIRECTXTK-MASTER\BIN\DESKTOP_2015\WIN32\RELEASE\DIRECTXTK.PCH
C:\USERS\11327\DESKTOP\SVN REPOSITORY\3DGP\3DGP.27\DIRECTXTK-MASTER\INC\GRAPHICSMEMORY.H
C:\USERS\11327\DESKTOP\SVN REPOSITORY\3DGP\3DGP.27\DIRECTXTK-MASTER\SRC\PLATFORMHELPERS.H
C:\PROGRAM FILES (X86)\MICROSOFT VISUAL STUDIO 14.0\VC\INCLUDE\MUTEX
C:\PROGRAM FILES (X86)\MICROSOFT VISUAL STUDIO 14.0\VC\INCLUDE\CHRONO
C:\PROGRAM FILES (X86)\MICROSOFT VISUAL STUDIO 14.0\VC\INCLUDE\RATIO
C:\PROGRAM FILES (X86)\WINDOWS KITS\10\INCLUDE\10.0.10240.0\UCRT\TIME.H
C:\PROGRAM FILES (X86)\MICROSOFT VISUAL STUDIO 14.0\VC\INCLUDE\THR\XTIMEC.H
C:\PROGRAM FILES (X86)\MICROSOFT VISUAL STUDIO 14.0\VC\INCLUDE\THR\XTHRCOMMON.H
C:\PROGRAM FILES (X86)\MICROSOFT VISUAL STUDIO 14.0\VC\INCLUDE\FUNCTIONAL
C:\PROGRAM FILES (X86)\MICROSOFT VISUAL STUDIO 14.0\VC\INCLUDE\XFUNCTIONAL
C:\PROGRAM FILES (X86)\MICROSOFT VISUAL STUDIO 14.0\VC\INCLUDE\THREAD
C:\PROGRAM FILES (X86)\MICROSOFT VISUAL STUDIO 14.0\VC\INCLUDE\THR\XTHREAD
C:\PROGRAM FILES (X86)\MICROSOFT VISUAL STUDIO 14.0\VC\INCLUDE\THR\XTIME
C:\PROGRAM FILES (X86)\MICROSOFT VISUAL STUDIO 14.0\VC\INCLUDE\THR\XTHREADS.H
^C:\USERS\11327\DESKTOP\SVN REPOSITORY\3DGP\3DGP.27\DIRECTXTK-MASTER\SRC\KEYBOARD.CPP
C:\USERS\11327\DESKTOP\SVN REPOSITORY\3DGP\3DGP.27\DIRECTXTK-MASTER\BIN\DESKTOP_2015\WIN32\RELEASE\DIRECTXTK.PCH
C:\USERS\11327\DESKTOP\SVN REPOSITORY\3DGP\3DGP.27\DIRECTXTK-MASTER\INC\KEYBOARD.H
C:\USERS\11327\DESKTOP\SVN REPOSITORY\3DGP\3DGP.27\DIRECTXTK-MASTER\SRC\PLATFORMHELPERS.H
C:\PROGRAM FILES (X86)\MICROSOFT VISUAL STUDIO 14.0\VC\INCLUDE\MUTEX
C:\PROGRAM FILES (X86)\MICROSOFT VISUAL STUDIO 14.0\VC\INCLUDE\CHRONO
C:\PROGRAM FILES (X86)\MICROSOFT VISUAL STUDIO 14.0\VC\INCLUDE\RATIO
C:\PROGRAM FILES (X86)\WINDOWS KITS\10\INCLUDE\10.0.10240.0\UCRT\TIME.H
C:\PROGRAM FILES (X86)\MICROSOFT VISUAL STUDIO 14.0\VC\INCLUDE\THR\XTIMEC.H
C:\PROGRAM FILES (X86)\MICROSOFT VISUAL STUDIO 14.0\VC\INCLUDE\THR\XTHRCOMMON.H
C:\PROGRAM FILES (X86)\MICROSOFT VISUAL STUDIO 14.0\VC\INCLUDE\FUNCTIONAL
C:\PROGRAM FILES (X86)\MICROSOFT VISUAL STUDIO 14.0\VC\INCLUDE\XFUNCTIONAL
C:\PROGRAM FILES (X86)\MICROSOFT VISUAL STUDIO 14.0\VC\INCLUDE\THREAD
C:\PROGRAM FILES (X86)\MICROSOFT VISUAL STUDIO 14.0\VC\INCLUDE\THR\XTHREAD
C:\PROGRAM FILES (X86)\MICROSOFT VISUAL STUDIO 14.0\VC\INCLUDE\THR\XTIME
C:\PROGRAM FILES (X86)\MICROSOFT VISUAL STUDIO 14.0\VC\INCLUDE\THR\XTHREADS.H
^C:\USERS\11327\DESKTOP\SVN REPOSITORY\3DGP\3DGP.27\DIRECTXTK-MASTER\SRC\MODEL.CPP
C:\USERS\11327\DESKTOP\SVN REPOSITORY\3DGP\3DGP.27\DIRECTXTK-MASTER\BIN\DESKTOP_2015\WIN32\RELEASE\DIRECTXTK.PCH
C:\USERS\11327\DESKTOP\SVN REPOSITORY\3DGP\3DGP.27\DIRECTXTK-MASTER\INC\MODEL.H
C:\PROGRAM FILES (X86)\MICROSOFT VISUAL STUDIO 14.0\VC\INCLUDE\FUNCTIONAL
C:\PROGRAM FILES (X86)\MICROSOFT VISUAL STUDIO 14.0\VC\INCLUDE\XFUNCTIONAL
C:\USERS\11327\DESKTOP\SVN REPOSITORY\3DGP\3DGP.27\DIRECTXTK-MASTER\INC\COMMONSTATES.H
C:\USERS\11327\DESKTOP\SVN REPOSITORY\3DGP\3DGP.27\DIRECTXTK-MASTER\INC\DIRECTXHELPERS.H
C:\USERS\11327\DESKTOP\SVN REPOSITORY\3DGP\3DGP.27\DIRECTXTK-MASTER\INC\EFFECTS.H
C:\USERS\11327\DESKTOP\SVN REPOSITORY\3DGP\3DGP.27\DIRECTXTK-MASTER\SRC\PLATFORMHELPERS.H
C:\PROGRAM FILES (X86)\MICROSOFT VISUAL STUDIO 14.0\VC\INCLUDE\MUTEX
C:\PROGRAM FILES (X86)\MICROSOFT VISUAL STUDIO 14.0\VC\INCLUDE\CHRONO
C:\PROGRAM FILES (X86)\MICROSOFT VISUAL STUDIO 14.0\VC\INCLUDE\RATIO
C:\PROGRAM FILES (X86)\WINDOWS KITS\10\INCLUDE\10.0.10240.0\UCRT\TIME.H
C:\PROGRAM FILES (X86)\MICROSOFT VISUAL STUDIO 14.0\VC\INCLUDE\THR\XTIMEC.H
C:\PROGRAM FILES (X86)\MICROSOFT VISUAL STUDIO 14.0\VC\INCLUDE\THR\XTHRCOMMON.H
C:\PROGRAM FILES (X86)\MICROSOFT VISUAL STUDIO 14.0\VC\INCLUDE\THREAD
C:\PROGRAM FILES (X86)\MICROSOFT VISUAL STUDIO 14.0\VC\INCLUDE\THR\XTHREAD
C:\PROGRAM FILES (X86)\MICROSOFT VISUAL STUDIO 14.0\VC\INCLUDE\THR\XTIME
C:\PROGRAM FILES (X86)\MICROSOFT VISUAL STUDIO 14.0\VC\INCLUDE\THR\XTHREADS.H
^C:\USERS\11327\DESKTOP\SVN REPOSITORY\3DGP\3DGP.27\DIRECTXTK-MASTER\SRC\MODELLOADCMO.CPP
C:\USERS\11327\DESKTOP\SVN REPOSITORY\3DGP\3DGP.27\DIRECTXTK-MASTER\BIN\DESKTOP_2015\WIN32\RELEASE\DIRECTXTK.PCH
C:\USERS\11327\DESKTOP\SVN REPOSITORY\3DGP\3DGP.27\DIRECTXTK-MASTER\INC\MODEL.H
C:\PROGRAM FILES (X86)\MICROSOFT VISUAL STUDIO 14.0\VC\INCLUDE\FUNCTIONAL
C:\PROGRAM FILES (X86)\MICROSOFT VISUAL STUDIO 14.0\VC\INCLUDE\XFUNCTIONAL
C:\USERS\11327\DESKTOP\SVN REPOSITORY\3DGP\3DGP.27\DIRECTXTK-MASTER\INC\DDSTEXTURELOADER.H
C:\USERS\11327\DESKTOP\SVN REPOSITORY\3DGP\3DGP.27\DIRECTXTK-MASTER\INC\EFFECTS.H
C:\USERS\11327\DESKTOP\SVN REPOSITORY\3DGP\3DGP.27\DIRECTXTK-MASTER\INC\VERTEXTYPES.H
C:\USERS\11327\DESKTOP\SVN REPOSITORY\3DGP\3DGP.27\DIRECTXTK-MASTER\INC\DIRECTXHELPERS.H
C:\USERS\11327\DESKTOP\SVN REPOSITORY\3DGP\3DGP.27\DIRECTXTK-MASTER\SRC\PLATFORMHELPERS.H
C:\PROGRAM FILES (X86)\MICROSOFT VISUAL STUDIO 14.0\VC\INCLUDE\MUTEX
C:\PROGRAM FILES (X86)\MICROSOFT VISUAL STUDIO 14.0\VC\INCLUDE\CHRONO
C:\PROGRAM FILES (X86)\MICROSOFT VISUAL STUDIO 14.0\VC\INCLUDE\RATIO
C:\PROGRAM FILES (X86)\WINDOWS KITS\10\INCLUDE\10.0.10240.0\UCRT\TIME.H
C:\PROGRAM FILES (X86)\MICROSOFT VISUAL STUDIO 14.0\VC\INCLUDE\THR\XTIMEC.H
C:\PROGRAM FILES (X86)\MICROSOFT VISUAL STUDIO 14.0\VC\INCLUDE\THR\XTHRCOMMON.H
C:\PROGRAM FILES (X86)\MICROSOFT VISUAL STUDIO 14.0\VC\INCLUDE\THREAD
C:\PROGRAM FILES (X86)\MICROSOFT VISUAL STUDIO 14.0\VC\INCLUDE\THR\XTHREAD
C:\PROGRAM FILES (X86)\MICROSOFT VISUAL STUDIO 14.0\VC\INCLUDE\THR\XTIME
C:\PROGRAM FILES (X86)\MICROSOFT VISUAL STUDIO 14.0\VC\INCLUDE\THR\XTHREADS.H
C:\USERS\11327\DESKTOP\SVN REPOSITORY\3DGP\3DGP.27\DIRECTXTK-MASTER\SRC\BINARYREADER.H
^C:\USERS\11327\DESKTOP\SVN REPOSITORY\3DGP\3DGP.27\DIRECTXTK-MASTER\SRC\MODELLOADSDKMESH.CPP
C:\USERS\11327\DESKTOP\SVN REPOSITORY\3DGP\3DGP.27\DIRECTXTK-MASTER\BIN\DESKTOP_2015\WIN32\RELEASE\DIRECTXTK.PCH
C:\USERS\11327\DESKTOP\SVN REPOSITORY\3DGP\3DGP.27\DIRECTXTK-MASTER\INC\MODEL.H
C:\PROGRAM FILES (X86)\MICROSOFT VISUAL STUDIO 14.0\VC\INCLUDE\FUNCTIONAL
C:\PROGRAM FILES (X86)\MICROSOFT VISUAL STUDIO 14.0\VC\INCLUDE\XFUNCTIONAL
C:\USERS\11327\DESKTOP\SVN REPOSITORY\3DGP\3DGP.27\DIRECTXTK-MASTER\INC\EFFECTS.H
C:\USERS\11327\DESKTOP\SVN REPOSITORY\3DGP\3DGP.27\DIRECTXTK-MASTER\INC\VERTEXTYPES.H
C:\USERS\11327\DESKTOP\SVN REPOSITORY\3DGP\3DGP.27\DIRECTXTK-MASTER\INC\DIRECTXHELPERS.H
C:\USERS\11327\DESKTOP\SVN REPOSITORY\3DGP\3DGP.27\DIRECTXTK-MASTER\SRC\PLATFORMHELPERS.H
C:\PROGRAM FILES (X86)\MICROSOFT VISUAL STUDIO 14.0\VC\INCLUDE\MUTEX
C:\PROGRAM FILES (X86)\MICROSOFT VISUAL STUDIO 14.0\VC\INCLUDE\CHRONO
C:\PROGRAM FILES (X86)\MICROSOFT VISUAL STUDIO 14.0\VC\INCLUDE\RATIO
C:\PROGRAM FILES (X86)\WINDOWS KITS\10\INCLUDE\10.0.10240.0\UCRT\TIME.H
C:\PROGRAM FILES (X86)\MICROSOFT VISUAL STUDIO 14.0\VC\INCLUDE\THR\XTIMEC.H
C:\PROGRAM FILES (X86)\MICROSOFT VISUAL STUDIO 14.0\VC\INCLUDE\THR\XTHRCOMMON.H
C:\PROGRAM FILES (X86)\MICROSOFT VISUAL STUDIO 14.0\VC\INCLUDE\THREAD
C:\PROGRAM FILES (X86)\MICROSOFT VISUAL STUDIO 14.0\VC\INCLUDE\THR\XTHREAD
C:\PROGRAM FILES (X86)\MICROSOFT VISUAL STUDIO 14.0\VC\INCLUDE\THR\XTIME
C:\PROGRAM FILES (X86)\MICROSOFT VISUAL STUDIO 14.0\VC\INCLUDE\THR\XTHREADS.H
C:\USERS\11327\DESKTOP\SVN REPOSITORY\3DGP\3DGP.27\DIRECTXTK-MASTER\SRC\BINARYREADER.H
C:\USERS\11327\DESKTOP\SVN REPOSITORY\3DGP\3DGP.27\DIRECTXTK-MASTER\SRC\SDKMESH.H
^C:\USERS\11327\DESKTOP\SVN REPOSITORY\3DGP\3DGP.27\DIRECTXTK-MASTER\SRC\MODELLOADVBO.CPP
C:\USERS\11327\DESKTOP\SVN REPOSITORY\3DGP\3DGP.27\DIRECTXTK-MASTER\BIN\DESKTOP_2015\WIN32\RELEASE\DIRECTXTK.PCH
C:\USERS\11327\DESKTOP\SVN REPOSITORY\3DGP\3DGP.27\DIRECTXTK-MASTER\INC\MODEL.H
C:\PROGRAM FILES (X86)\MICROSOFT VISUAL STUDIO 14.0\VC\INCLUDE\FUNCTIONAL
C:\PROGRAM FILES (X86)\MICROSOFT VISUAL STUDIO 14.0\VC\INCLUDE\XFUNCTIONAL
C:\USERS\11327\DESKTOP\SVN REPOSITORY\3DGP\3DGP.27\DIRECTXTK-MASTER\INC\EFFECTS.H
C:\USERS\11327\DESKTOP\SVN REPOSITORY\3DGP\3DGP.27\DIRECTXTK-MASTER\INC\VERTEXTYPES.H
C:\USERS\11327\DESKTOP\SVN REPOSITORY\3DGP\3DGP.27\DIRECTXTK-MASTER\INC\DIRECTXHELPERS.H
C:\USERS\11327\DESKTOP\SVN REPOSITORY\3DGP\3DGP.27\DIRECTXTK-MASTER\SRC\PLATFORMHELPERS.H
C:\PROGRAM FILES (X86)\MICROSOFT VISUAL STUDIO 14.0\VC\INCLUDE\MUTEX
C:\PROGRAM FILES (X86)\MICROSOFT VISUAL STUDIO 14.0\VC\INCLUDE\CHRONO
C:\PROGRAM FILES (X86)\MICROSOFT VISUAL STUDIO 14.0\VC\INCLUDE\RATIO
C:\PROGRAM FILES (X86)\WINDOWS KITS\10\INCLUDE\10.0.10240.0\UCRT\TIME.H
C:\PROGRAM FILES (X86)\MICROSOFT VISUAL STUDIO 14.0\VC\INCLUDE\THR\XTIMEC.H
C:\PROGRAM FILES (X86)\MICROSOFT VISUAL STUDIO 14.0\VC\INCLUDE\THR\XTHRCOMMON.H
C:\PROGRAM FILES (X86)\MICROSOFT VISUAL STUDIO 14.0\VC\INCLUDE\THREAD
C:\PROGRAM FILES (X86)\MICROSOFT VISUAL STUDIO 14.0\VC\INCLUDE\THR\XTHREAD
C:\PROGRAM FILES (X86)\MICROSOFT VISUAL STUDIO 14.0\VC\INCLUDE\THR\XTIME
C:\PROGRAM FILES (X86)\MICROSOFT VISUAL STUDIO 14.0\VC\INCLUDE\THR\XTHREADS.H
C:\USERS\11327\DESKTOP\SVN REPOSITORY\3DGP\3DGP.27\DIRECTXTK-MASTER\SRC\BINARYREADER.H
C:\USERS\11327\DESKTOP\SVN REPOSITORY\3DGP\3DGP.27\DIRECTXTK-MASTER\SRC\VBO.H
^C:\USERS\11327\DESKTOP\SVN REPOSITORY\3DGP\3DGP.27\DIRECTXTK-MASTER\SRC\MOUSE.CPP
C:\USERS\11327\DESKTOP\SVN REPOSITORY\3DGP\3DGP.27\DIRECTXTK-MASTER\BIN\DESKTOP_2015\WIN32\RELEASE\DIRECTXTK.PCH
C:\USERS\11327\DESKTOP\SVN REPOSITORY\3DGP\3DGP.27\DIRECTXTK-MASTER\INC\MOUSE.H
C:\USERS\11327\DESKTOP\SVN REPOSITORY\3DGP\3DGP.27\DIRECTXTK-MASTER\SRC\PLATFORMHELPERS.H
C:\PROGRAM FILES (X86)\MICROSOFT VISUAL STUDIO 14.0\VC\INCLUDE\MUTEX
C:\PROGRAM FILES (X86)\MICROSOFT VISUAL STUDIO 14.0\VC\INCLUDE\CHRONO
C:\PROGRAM FILES (X86)\MICROSOFT VISUAL STUDIO 14.0\VC\INCLUDE\RATIO
C:\PROGRAM FILES (X86)\WINDOWS KITS\10\INCLUDE\10.0.10240.0\UCRT\TIME.H
C:\PROGRAM FILES (X86)\MICROSOFT VISUAL STUDIO 14.0\VC\INCLUDE\THR\XTIMEC.H
C:\PROGRAM FILES (X86)\MICROSOFT VISUAL STUDIO 14.0\VC\INCLUDE\THR\XTHRCOMMON.H
C:\PROGRAM FILES (X86)\MICROSOFT VISUAL STUDIO 14.0\VC\INCLUDE\FUNCTIONAL
C:\PROGRAM FILES (X86)\MICROSOFT VISUAL STUDIO 14.0\VC\INCLUDE\XFUNCTIONAL
C:\PROGRAM FILES (X86)\MICROSOFT VISUAL STUDIO 14.0\VC\INCLUDE\THREAD
C:\PROGRAM FILES (X86)\MICROSOFT VISUAL STUDIO 14.0\VC\INCLUDE\THR\XTHREAD
C:\PROGRAM FILES (X86)\MICROSOFT VISUAL STUDIO 14.0\VC\INCLUDE\THR\XTIME
C:\PROGRAM FILES (X86)\MICROSOFT VISUAL STUDIO 14.0\VC\INCLUDE\THR\XTHREADS.H
^C:\USERS\11327\DESKTOP\SVN REPOSITORY\3DGP\3DGP.27\DIRECTXTK-MASTER\SRC\NORMALMAPEFFECT.CPP
C:\USERS\11327\DESKTOP\SVN REPOSITORY\3DGP\3DGP.27\DIRECTXTK-MASTER\BIN\DESKTOP_2015\WIN32\RELEASE\DIRECTXTK.PCH
C:\USERS\11327\DESKTOP\SVN REPOSITORY\3DGP\3DGP.27\DIRECTXTK-MASTER\SRC\EFFECTCOMMON.H
C:\USERS\11327\DESKTOP\SVN REPOSITORY\3DGP\3DGP.27\DIRECTXTK-MASTER\INC\EFFECTS.H
C:\USERS\11327\DESKTOP\SVN REPOSITORY\3DGP\3DGP.27\DIRECTXTK-MASTER\SRC\PLATFORMHELPERS.H
C:\PROGRAM FILES (X86)\MICROSOFT VISUAL STUDIO 14.0\VC\INCLUDE\MUTEX
C:\PROGRAM FILES (X86)\MICROSOFT VISUAL STUDIO 14.0\VC\INCLUDE\CHRONO
C:\PROGRAM FILES (X86)\MICROSOFT VISUAL STUDIO 14.0\VC\INCLUDE\RATIO
C:\PROGRAM FILES (X86)\WINDOWS KITS\10\INCLUDE\10.0.10240.0\UCRT\TIME.H
C:\PROGRAM FILES (X86)\MICROSOFT VISUAL STUDIO 14.0\VC\INCLUDE\THR\XTIMEC.H
C:\PROGRAM FILES (X86)\MICROSOFT VISUAL STUDIO 14.0\VC\INCLUDE\THR\XTHRCOMMON.H
C:\PROGRAM FILES (X86)\MICROSOFT VISUAL STUDIO 14.0\VC\INCLUDE\FUNCTIONAL
C:\PROGRAM FILES (X86)\MICROSOFT VISUAL STUDIO 14.0\VC\INCLUDE\XFUNCTIONAL
C:\PROGRAM FILES (X86)\MICROSOFT VISUAL STUDIO 14.0\VC\INCLUDE\THREAD
C:\PROGRAM FILES (X86)\MICROSOFT VISUAL STUDIO 14.0\VC\INCLUDE\THR\XTHREAD
C:\PROGRAM FILES (X86)\MICROSOFT VISUAL STUDIO 14.0\VC\INCLUDE\THR\XTIME
C:\PROGRAM FILES (X86)\MICROSOFT VISUAL STUDIO 14.0\VC\INCLUDE\THR\XTHREADS.H
C:\USERS\11327\DESKTOP\SVN REPOSITORY\3DGP\3DGP.27\DIRECTXTK-MASTER\SRC\CONSTANTBUFFER.H
C:\USERS\11327\DESKTOP\SVN REPOSITORY\3DGP\3DGP.27\DIRECTXTK-MASTER\INC\DIRECTXHELPERS.H
C:\USERS\11327\DESKTOP\SVN REPOSITORY\3DGP\3DGP.27\DIRECTXTK-MASTER\INC\GRAPHICSMEMORY.H
C:\USERS\11327\DESKTOP\SVN REPOSITORY\3DGP\3DGP.27\DIRECTXTK-MASTER\SRC\SHAREDRESOURCEPOOL.H
C:\USERS\11327\DESKTOP\SVN REPOSITORY\3DGP\3DGP.27\DIRECTXTK-MASTER\SRC\ALIGNEDNEW.H
C:\USERS\11327\DESKTOP\SVN REPOSITORY\3DGP\3DGP.27\DIRECTXTK-MASTER\SRC\SHADERS\COMPILED\NORMALMAPEFFECT_VSNORMALPIXELLIGHTINGTX.INC
C:\USERS\11327\DESKTOP\SVN REPOSITORY\3DGP\3DGP.27\DIRECTXTK-MASTER\SRC\SHADERS\COMPILED\NORMALMAPEFFECT_VSNORMALPIXELLIGHTINGTXVC.INC
C:\USERS\11327\DESKTOP\SVN REPOSITORY\3DGP\3DGP.27\DIRECTXTK-MASTER\SRC\SHADERS\COMPILED\NORMALMAPEFFECT_VSNORMALPIXELLIGHTINGTXBN.INC
C:\USERS\11327\DESKTOP\SVN REPOSITORY\3DGP\3DGP.27\DIRECTXTK-MASTER\SRC\SHADERS\COMPILED\NORMALMAPEFFECT_VSNORMALPIXELLIGHTINGTXVCBN.INC
C:\USERS\11327\DESKTOP\SVN REPOSITORY\3DGP\3DGP.27\DIRECTXTK-MASTER\SRC\SHADERS\COMPILED\NORMALMAPEFFECT_PSNORMALPIXELLIGHTINGTX.INC
C:\USERS\11327\DESKTOP\SVN REPOSITORY\3DGP\3DGP.27\DIRECTXTK-MASTER\SRC\SHADERS\COMPILED\NORMALMAPEFFECT_PSNORMALPIXELLIGHTINGTXNOFOG.INC
C:\USERS\11327\DESKTOP\SVN REPOSITORY\3DGP\3DGP.27\DIRECTXTK-MASTER\SRC\SHADERS\COMPILED\NORMALMAPEFFECT_PSNORMALPIXELLIGHTINGTXNOSPEC.INC
C:\USERS\11327\DESKTOP\SVN REPOSITORY\3DGP\3DGP.27\DIRECTXTK-MASTER\SRC\SHADERS\COMPILED\NORMALMAPEFFECT_PSNORMALPIXELLIGHTINGTXNOFOGSPEC.INC
^C:\USERS\11327\DESKTOP\SVN REPOSITORY\3DGP\3DGP.27\DIRECTXTK-MASTER\SRC\SCREENGRAB.CPP
C:\USERS\11327\DESKTOP\SVN REPOSITORY\3DGP\3DGP.27\DIRECTXTK-MASTER\BIN\DESKTOP_2015\WIN32\RELEASE\DIRECTXTK.PCH
C:\USERS\11327\DESKTOP\SVN REPOSITORY\3DGP\3DGP.27\DIRECTXTK-MASTER\INC\SCREENGRAB.H
C:\PROGRAM FILES (X86)\MICROSOFT VISUAL STUDIO 14.0\VC\INCLUDE\FUNCTIONAL
C:\PROGRAM FILES (X86)\MICROSOFT VISUAL STUDIO 14.0\VC\INCLUDE\XFUNCTIONAL
C:\USERS\11327\DESKTOP\SVN REPOSITORY\3DGP\3DGP.27\DIRECTXTK-MASTER\INC\DIRECTXHELPERS.H
C:\USERS\11327\DESKTOP\SVN REPOSITORY\3DGP\3DGP.27\DIRECTXTK-MASTER\SRC\DDS.H
C:\USERS\11327\DESKTOP\SVN REPOSITORY\3DGP\3DGP.27\DIRECTXTK-MASTER\SRC\PLATFORMHELPERS.H
C:\PROGRAM FILES (X86)\MICROSOFT VISUAL STUDIO 14.0\VC\INCLUDE\MUTEX
C:\PROGRAM FILES (X86)\MICROSOFT VISUAL STUDIO 14.0\VC\INCLUDE\CHRONO
C:\PROGRAM FILES (X86)\MICROSOFT VISUAL STUDIO 14.0\VC\INCLUDE\RATIO
C:\PROGRAM FILES (X86)\WINDOWS KITS\10\INCLUDE\10.0.10240.0\UCRT\TIME.H
C:\PROGRAM FILES (X86)\MICROSOFT VISUAL STUDIO 14.0\VC\INCLUDE\THR\XTIMEC.H
C:\PROGRAM FILES (X86)\MICROSOFT VISUAL STUDIO 14.0\VC\INCLUDE\THR\XTHRCOMMON.H
C:\PROGRAM FILES (X86)\MICROSOFT VISUAL STUDIO 14.0\VC\INCLUDE\THREAD
C:\PROGRAM FILES (X86)\MICROSOFT VISUAL STUDIO 14.0\VC\INCLUDE\THR\XTHREAD
C:\PROGRAM FILES (X86)\MICROSOFT VISUAL STUDIO 14.0\VC\INCLUDE\THR\XTIME
C:\PROGRAM FILES (X86)\MICROSOFT VISUAL STUDIO 14.0\VC\INCLUDE\THR\XTHREADS.H
C:\USERS\11327\DESKTOP\SVN REPOSITORY\3DGP\3DGP.27\DIRECTXTK-MASTER\SRC\LOADERHELPERS.H
C:\USERS\11327\DESKTOP\SVN REPOSITORY\3DGP\3DGP.27\DIRECTXTK-MASTER\INC\DDSTEXTURELOADER.H
^C:\USERS\11327\DESKTOP\SVN REPOSITORY\3DGP\3DGP.27\DIRECTXTK-MASTER\SRC\SIMPLEMATH.CPP
C:\USERS\11327\DESKTOP\SVN REPOSITORY\3DGP\3DGP.27\DIRECTXTK-MASTER\BIN\DESKTOP_2015\WIN32\RELEASE\DIRECTXTK.PCH
C:\USERS\11327\DESKTOP\SVN REPOSITORY\3DGP\3DGP.27\DIRECTXTK-MASTER\INC\SIMPLEMATH.H
C:\PROGRAM FILES (X86)\MICROSOFT VISUAL STUDIO 14.0\VC\INCLUDE\FUNCTIONAL
C:\PROGRAM FILES (X86)\MICROSOFT VISUAL STUDIO 14.0\VC\INCLUDE\XFUNCTIONAL
C:\PROGRAM FILES (X86)\WINDOWS KITS\10\INCLUDE\10.0.10240.0\UCRT\ASSERT.H
C:\PROGRAM FILES (X86)\WINDOWS KITS\10\INCLUDE\10.0.10240.0\UCRT\MEMORY.H
C:\USERS\11327\DESKTOP\SVN REPOSITORY\3DGP\3DGP.27\DIRECTXTK-MASTER\INC\SIMPLEMATH.INL
^C:\USERS\11327\DESKTOP\SVN REPOSITORY\3DGP\3DGP.27\DIRECTXTK-MASTER\SRC\SKINNEDEFFECT.CPP
C:\USERS\11327\DESKTOP\SVN REPOSITORY\3DGP\3DGP.27\DIRECTXTK-MASTER\BIN\DESKTOP_2015\WIN32\RELEASE\DIRECTXTK.PCH
C:\USERS\11327\DESKTOP\SVN REPOSITORY\3DGP\3DGP.27\DIRECTXTK-MASTER\SRC\EFFECTCOMMON.H
C:\USERS\11327\DESKTOP\SVN REPOSITORY\3DGP\3DGP.27\DIRECTXTK-MASTER\INC\EFFECTS.H
C:\USERS\11327\DESKTOP\SVN REPOSITORY\3DGP\3DGP.27\DIRECTXTK-MASTER\SRC\PLATFORMHELPERS.H
C:\PROGRAM FILES (X86)\MICROSOFT VISUAL STUDIO 14.0\VC\INCLUDE\MUTEX
C:\PROGRAM FILES (X86)\MICROSOFT VISUAL STUDIO 14.0\VC\INCLUDE\CHRONO
C:\PROGRAM FILES (X86)\MICROSOFT VISUAL STUDIO 14.0\VC\INCLUDE\RATIO
C:\PROGRAM FILES (X86)\WINDOWS KITS\10\INCLUDE\10.0.10240.0\UCRT\TIME.H
C:\PROGRAM FILES (X86)\MICROSOFT VISUAL STUDIO 14.0\VC\INCLUDE\THR\XTIMEC.H
C:\PROGRAM FILES (X86)\MICROSOFT VISUAL STUDIO 14.0\VC\INCLUDE\THR\XTHRCOMMON.H
C:\PROGRAM FILES (X86)\MICROSOFT VISUAL STUDIO 14.0\VC\INCLUDE\FUNCTIONAL
C:\PROGRAM FILES (X86)\MICROSOFT VISUAL STUDIO 14.0\VC\INCLUDE\XFUNCTIONAL
C:\PROGRAM FILES (X86)\MICROSOFT VISUAL STUDIO 14.0\VC\INCLUDE\THREAD
C:\PROGRAM FILES (X86)\MICROSOFT VISUAL STUDIO 14.0\VC\INCLUDE\THR\XTHREAD
C:\PROGRAM FILES (X86)\MICROSOFT VISUAL STUDIO 14.0\VC\INCLUDE\THR\XTIME
C:\PROGRAM FILES (X86)\MICROSOFT VISUAL STUDIO 14.0\VC\INCLUDE\THR\XTHREADS.H
C:\USERS\11327\DESKTOP\SVN REPOSITORY\3DGP\3DGP.27\DIRECTXTK-MASTER\SRC\CONSTANTBUFFER.H
C:\USERS\11327\DESKTOP\SVN REPOSITORY\3DGP\3DGP.27\DIRECTXTK-MASTER\INC\DIRECTXHELPERS.H
C:\USERS\11327\DESKTOP\SVN REPOSITORY\3DGP\3DGP.27\DIRECTXTK-MASTER\INC\GRAPHICSMEMORY.H
C:\USERS\11327\DESKTOP\SVN REPOSITORY\3DGP\3DGP.27\DIRECTXTK-MASTER\SRC\SHAREDRESOURCEPOOL.H
C:\USERS\11327\DESKTOP\SVN REPOSITORY\3DGP\3DGP.27\DIRECTXTK-MASTER\SRC\ALIGNEDNEW.H
C:\USERS\11327\DESKTOP\SVN REPOSITORY\3DGP\3DGP.27\DIRECTXTK-MASTER\SRC\SHADERS\COMPILED\SKINNEDEFFECT_VSSKINNEDVERTEXLIGHTINGONEBONE.INC
C:\USERS\11327\DESKTOP\SVN REPOSITORY\3DGP\3DGP.27\DIRECTXTK-MASTER\SRC\SHADERS\COMPILED\SKINNEDEFFECT_VSSKINNEDVERTEXLIGHTINGTWOBONES.INC
C:\USERS\11327\DESKTOP\SVN REPOSITORY\3DGP\3DGP.27\DIRECTXTK-MASTER\SRC\SHADERS\COMPILED\SKINNEDEFFECT_VSSKINNEDVERTEXLIGHTINGFOURBONES.INC
C:\USERS\11327\DESKTOP\SVN REPOSITORY\3DGP\3DGP.27\DIRECTXTK-MASTER\SRC\SHADERS\COMPILED\SKINNEDEFFECT_VSSKINNEDONELIGHTONEBONE.INC
C:\USERS\11327\DESKTOP\SVN REPOSITORY\3DGP\3DGP.27\DIRECTXTK-MASTER\SRC\SHADERS\COMPILED\SKINNEDEFFECT_VSSKINNEDONELIGHTTWOBONES.INC
C:\USERS\11327\DESKTOP\SVN REPOSITORY\3DGP\3DGP.27\DIRECTXTK-MASTER\SRC\SHADERS\COMPILED\SKINNEDEFFECT_VSSKINNEDONELIGHTFOURBONES.INC
C:\USERS\11327\DESKTOP\SVN REPOSITORY\3DGP\3DGP.27\DIRECTXTK-MASTER\SRC\SHADERS\COMPILED\SKINNEDEFFECT_VSSKINNEDPIXELLIGHTINGONEBONE.INC
C:\USERS\11327\DESKTOP\SVN REPOSITORY\3DGP\3DGP.27\DIRECTXTK-MASTER\SRC\SHADERS\COMPILED\SKINNEDEFFECT_VSSKINNEDPIXELLIGHTINGTWOBONES.INC
C:\USERS\11327\DESKTOP\SVN REPOSITORY\3DGP\3DGP.27\DIRECTXTK-MASTER\SRC\SHADERS\COMPILED\SKINNEDEFFECT_VSSKINNEDPIXELLIGHTINGFOURBONES.INC
C:\USERS\11327\DESKTOP\SVN REPOSITORY\3DGP\3DGP.27\DIRECTXTK-MASTER\SRC\SHADERS\COMPILED\SKINNEDEFFECT_VSSKINNEDVERTEXLIGHTINGONEBONEBN.INC
C:\USERS\11327\DESKTOP\SVN REPOSITORY\3DGP\3DGP.27\DIRECTXTK-MASTER\SRC\SHADERS\COMPILED\SKINNEDEFFECT_VSSKINNEDVERTEXLIGHTINGTWOBONESBN.INC
C:\USERS\11327\DESKTOP\SVN REPOSITORY\3DGP\3DGP.27\DIRECTXTK-MASTER\SRC\SHADERS\COMPILED\SKINNEDEFFECT_VSSKINNEDVERTEXLIGHTINGFOURBONESBN.INC
C:\USERS\11327\DESKTOP\SVN REPOSITORY\3DGP\3DGP.27\DIRECTXTK-MASTER\SRC\SHADERS\COMPILED\SKINNEDEFFECT_VSSKINNEDONELIGHTONEBONEBN.INC
C:\USERS\11327\DESKTOP\SVN REPOSITORY\3DGP\3DGP.27\DIRECTXTK-MASTER\SRC\SHADERS\COMPILED\SKINNEDEFFECT_VSSKINNEDONELIGHTTWOBONESBN.INC
C:\USERS\11327\DESKTOP\SVN REPOSITORY\3DGP\3DGP.27\DIRECTXTK-MASTER\SRC\SHADERS\COMPILED\SKINNEDEFFECT_VSSKINNEDONELIGHTFOURBONESBN.INC
C:\USERS\11327\DESKTOP\SVN REPOSITORY\3DGP\3DGP.27\DIRECTXTK-MASTER\SRC\SHADERS\COMPILED\SKINNEDEFFECT_VSSKINNEDPIXELLIGHTINGONEBONEBN.INC
C:\USERS\11327\DESKTOP\SVN REPOSITORY\3DGP\3DGP.27\DIRECTXTK-MASTER\SRC\SHADERS\COMPILED\SKINNEDEFFECT_VSSKINNEDPIXELLIGHTINGTWOBONESBN.INC
C:\USERS\11327\DESKTOP\SVN REPOSITORY\3DGP\3DGP.27\DIRECTXTK-MASTER\SRC\SHADERS\COMPILED\SKINNEDEFFECT_VSSKINNEDPIXELLIGHTINGFOURBONESBN.INC
C:\USERS\11327\DESKTOP\SVN REPOSITORY\3DGP\3DGP.27\DIRECTXTK-MASTER\SRC\SHADERS\COMPILED\SKINNEDEFFECT_PSSKINNEDVERTEXLIGHTING.INC
C:\USERS\11327\DESKTOP\SVN REPOSITORY\3DGP\3DGP.27\DIRECTXTK-MASTER\SRC\SHADERS\COMPILED\SKINNEDEFFECT_PSSKINNEDVERTEXLIGHTINGNOFOG.INC
C:\USERS\11327\DESKTOP\SVN REPOSITORY\3DGP\3DGP.27\DIRECTXTK-MASTER\SRC\SHADERS\COMPILED\SKINNEDEFFECT_PSSKINNEDPIXELLIGHTING.INC
^C:\USERS\11327\DESKTOP\SVN REPOSITORY\3DGP\3DGP.27\DIRECTXTK-MASTER\SRC\SPRITEBATCH.CPP
C:\USERS\11327\DESKTOP\SVN REPOSITORY\3DGP\3DGP.27\DIRECTXTK-MASTER\BIN\DESKTOP_2015\WIN32\RELEASE\DIRECTXTK.PCH
C:\USERS\11327\DESKTOP\SVN REPOSITORY\3DGP\3DGP.27\DIRECTXTK-MASTER\INC\SPRITEBATCH.H
C:\PROGRAM FILES (X86)\WINDOWS KITS\8.1\INCLUDE\UM\DIRECTXCOLORS.H
C:\PROGRAM FILES (X86)\MICROSOFT VISUAL STUDIO 14.0\VC\INCLUDE\FUNCTIONAL
C:\PROGRAM FILES (X86)\MICROSOFT VISUAL STUDIO 14.0\VC\INCLUDE\XFUNCTIONAL
C:\USERS\11327\DESKTOP\SVN REPOSITORY\3DGP\3DGP.27\DIRECTXTK-MASTER\SRC\CONSTANTBUFFER.H
C:\USERS\11327\DESKTOP\SVN REPOSITORY\3DGP\3DGP.27\DIRECTXTK-MASTER\INC\DIRECTXHELPERS.H
C:\USERS\11327\DESKTOP\SVN REPOSITORY\3DGP\3DGP.27\DIRECTXTK-MASTER\INC\GRAPHICSMEMORY.H
C:\USERS\11327\DESKTOP\SVN REPOSITORY\3DGP\3DGP.27\DIRECTXTK-MASTER\SRC\PLATFORMHELPERS.H
C:\PROGRAM FILES (X86)\MICROSOFT VISUAL STUDIO 14.0\VC\INCLUDE\MUTEX
C:\PROGRAM FILES (X86)\MICROSOFT VISUAL STUDIO 14.0\VC\INCLUDE\CHRONO
C:\PROGRAM FILES (X86)\MICROSOFT VISUAL STUDIO 14.0\VC\INCLUDE\RATIO
C:\PROGRAM FILES (X86)\WINDOWS KITS\10\INCLUDE\10.0.10240.0\UCRT\TIME.H
C:\PROGRAM FILES (X86)\MICROSOFT VISUAL STUDIO 14.0\VC\INCLUDE\THR\XTIMEC.H
C:\PROGRAM FILES (X86)\MICROSOFT VISUAL STUDIO 14.0\VC\INCLUDE\THR\XTHRCOMMON.H
C:\PROGRAM FILES (X86)\MICROSOFT VISUAL STUDIO 14.0\VC\INCLUDE\THREAD
C:\PROGRAM FILES (X86)\MICROSOFT VISUAL STUDIO 14.0\VC\INCLUDE\THR\XTHREAD
C:\PROGRAM FILES (X86)\MICROSOFT VISUAL STUDIO 14.0\VC\INCLUDE\THR\XTIME
C:\PROGRAM FILES (X86)\MICROSOFT VISUAL STUDIO 14.0\VC\INCLUDE\THR\XTHREADS.H
C:\USERS\11327\DESKTOP\SVN REPOSITORY\3DGP\3DGP.27\DIRECTXTK-MASTER\INC\COMMONSTATES.H
C:\USERS\11327\DESKTOP\SVN REPOSITORY\3DGP\3DGP.27\DIRECTXTK-MASTER\INC\VERTEXTYPES.H
C:\USERS\11327\DESKTOP\SVN REPOSITORY\3DGP\3DGP.27\DIRECTXTK-MASTER\SRC\SHAREDRESOURCEPOOL.H
C:\USERS\11327\DESKTOP\SVN REPOSITORY\3DGP\3DGP.27\DIRECTXTK-MASTER\SRC\ALIGNEDNEW.H
C:\USERS\11327\DESKTOP\SVN REPOSITORY\3DGP\3DGP.27\DIRECTXTK-MASTER\SRC\SHADERS\COMPILED\SPRITEEFFECT_SPRITEVERTEXSHADER.INC
C:\USERS\11327\DESKTOP\SVN REPOSITORY\3DGP\3DGP.27\DIRECTXTK-MASTER\SRC\SHADERS\COMPILED\SPRITEEFFECT_SPRITEPIXELSHADER.INC
^C:\USERS\11327\DESKTOP\SVN REPOSITORY\3DGP\3DGP.27\DIRECTXTK-MASTER\SRC\PRIMITIVEBATCH.CPP
C:\USERS\11327\DESKTOP\SVN REPOSITORY\3DGP\3DGP.27\DIRECTXTK-MASTER\BIN\DESKTOP_2015\WIN32\RELEASE\DIRECTXTK.PCH
C:\USERS\11327\DESKTOP\SVN REPOSITORY\3DGP\3DGP.27\DIRECTXTK-MASTER\INC\PRIMITIVEBATCH.H
C:\USERS\11327\DESKTOP\SVN REPOSITORY\3DGP\3DGP.27\DIRECTXTK-MASTER\INC\DIRECTXHELPERS.H
C:\USERS\11327\DESKTOP\SVN REPOSITORY\3DGP\3DGP.27\DIRECTXTK-MASTER\INC\GRAPHICSMEMORY.H
C:\USERS\11327\DESKTOP\SVN REPOSITORY\3DGP\3DGP.27\DIRECTXTK-MASTER\SRC\PLATFORMHELPERS.H
C:\PROGRAM FILES (X86)\MICROSOFT VISUAL STUDIO 14.0\VC\INCLUDE\MUTEX
C:\PROGRAM FILES (X86)\MICROSOFT VISUAL STUDIO 14.0\VC\INCLUDE\CHRONO
C:\PROGRAM FILES (X86)\MICROSOFT VISUAL STUDIO 14.0\VC\INCLUDE\RATIO
C:\PROGRAM FILES (X86)\WINDOWS KITS\10\INCLUDE\10.0.10240.0\UCRT\TIME.H
C:\PROGRAM FILES (X86)\MICROSOFT VISUAL STUDIO 14.0\VC\INCLUDE\THR\XTIMEC.H
C:\PROGRAM FILES (X86)\MICROSOFT VISUAL STUDIO 14.0\VC\INCLUDE\THR\XTHRCOMMON.H
C:\PROGRAM FILES (X86)\MICROSOFT VISUAL STUDIO 14.0\VC\INCLUDE\FUNCTIONAL
C:\PROGRAM FILES (X86)\MICROSOFT VISUAL STUDIO 14.0\VC\INCLUDE\XFUNCTIONAL
C:\PROGRAM FILES (X86)\MICROSOFT VISUAL STUDIO 14.0\VC\INCLUDE\THREAD
C:\PROGRAM FILES (X86)\MICROSOFT VISUAL STUDIO 14.0\VC\INCLUDE\THR\XTHREAD
C:\PROGRAM FILES (X86)\MICROSOFT VISUAL STUDIO 14.0\VC\INCLUDE\THR\XTIME
C:\PROGRAM FILES (X86)\MICROSOFT VISUAL STUDIO 14.0\VC\INCLUDE\THR\XTHREADS.H
^C:\USERS\11327\DESKTOP\SVN REPOSITORY\3DGP\3DGP.27\DIRECTXTK-MASTER\SRC\SPRITEFONT.CPP
C:\USERS\11327\DESKTOP\SVN REPOSITORY\3DGP\3DGP.27\DIRECTXTK-MASTER\BIN\DESKTOP_2015\WIN32\RELEASE\DIRECTXTK.PCH
C:\USERS\11327\DESKTOP\SVN REPOSITORY\3DGP\3DGP.27\DIRECTXTK-MASTER\INC\SPRITEFONT.H
C:\USERS\11327\DESKTOP\SVN REPOSITORY\3DGP\3DGP.27\DIRECTXTK-MASTER\INC\SPRITEBATCH.H
C:\PROGRAM FILES (X86)\WINDOWS KITS\8.1\INCLUDE\UM\DIRECTXCOLORS.H
C:\PROGRAM FILES (X86)\MICROSOFT VISUAL STUDIO 14.0\VC\INCLUDE\FUNCTIONAL
C:\PROGRAM FILES (X86)\MICROSOFT VISUAL STUDIO 14.0\VC\INCLUDE\XFUNCTIONAL
C:\USERS\11327\DESKTOP\SVN REPOSITORY\3DGP\3DGP.27\DIRECTXTK-MASTER\INC\DIRECTXHELPERS.H
C:\USERS\11327\DESKTOP\SVN REPOSITORY\3DGP\3DGP.27\DIRECTXTK-MASTER\SRC\BINARYREADER.H
C:\USERS\11327\DESKTOP\SVN REPOSITORY\3DGP\3DGP.27\DIRECTXTK-MASTER\SRC\PLATFORMHELPERS.H
C:\PROGRAM FILES (X86)\MICROSOFT VISUAL STUDIO 14.0\VC\INCLUDE\MUTEX
C:\PROGRAM FILES (X86)\MICROSOFT VISUAL STUDIO 14.0\VC\INCLUDE\CHRONO
C:\PROGRAM FILES (X86)\MICROSOFT VISUAL STUDIO 14.0\VC\INCLUDE\RATIO
C:\PROGRAM FILES (X86)\WINDOWS KITS\10\INCLUDE\10.0.10240.0\UCRT\TIME.H
C:\PROGRAM FILES (X86)\MICROSOFT VISUAL STUDIO 14.0\VC\INCLUDE\THR\XTIMEC.H
C:\PROGRAM FILES (X86)\MICROSOFT VISUAL STUDIO 14.0\VC\INCLUDE\THR\XTHRCOMMON.H
C:\PROGRAM FILES (X86)\MICROSOFT VISUAL STUDIO 14.0\VC\INCLUDE\THREAD
C:\PROGRAM FILES (X86)\MICROSOFT VISUAL STUDIO 14.0\VC\INCLUDE\THR\XTHREAD
C:\PROGRAM FILES (X86)\MICROSOFT VISUAL STUDIO 14.0\VC\INCLUDE\THR\XTIME
C:\PROGRAM FILES (X86)\MICROSOFT VISUAL STUDIO 14.0\VC\INCLUDE\THR\XTHREADS.H
C:\USERS\11327\DESKTOP\SVN REPOSITORY\3DGP\3DGP.27\DIRECTXTK-MASTER\SRC\LOADERHELPERS.H
C:\USERS\11327\DESKTOP\SVN REPOSITORY\3DGP\3DGP.27\DIRECTXTK-MASTER\SRC\DDS.H
C:\USERS\11327\DESKTOP\SVN REPOSITORY\3DGP\3DGP.27\DIRECTXTK-MASTER\INC\DDSTEXTURELOADER.H
^C:\USERS\11327\DESKTOP\SVN REPOSITORY\3DGP\3DGP.27\DIRECTXTK-MASTER\SRC\VERTEXTYPES.CPP
C:\USERS\11327\DESKTOP\SVN REPOSITORY\3DGP\3DGP.27\DIRECTXTK-MASTER\BIN\DESKTOP_2015\WIN32\RELEASE\DIRECTXTK.PCH
C:\USERS\11327\DESKTOP\SVN REPOSITORY\3DGP\3DGP.27\DIRECTXTK-MASTER\INC\VERTEXTYPES.H
^C:\USERS\11327\DESKTOP\SVN REPOSITORY\3DGP\3DGP.27\DIRECTXTK-MASTER\SRC\WICTEXTURELOADER.CPP
C:\USERS\11327\DESKTOP\SVN REPOSITORY\3DGP\3DGP.27\DIRECTXTK-MASTER\BIN\DESKTOP_2015\WIN32\RELEASE\DIRECTXTK.PCH
C:\USERS\11327\DESKTOP\SVN REPOSITORY\3DGP\3DGP.27\DIRECTXTK-MASTER\INC\WICTEXTURELOADER.H
C:\USERS\11327\DESKTOP\SVN REPOSITORY\3DGP\3DGP.27\DIRECTXTK-MASTER\INC\DIRECTXHELPERS.H
C:\USERS\11327\DESKTOP\SVN REPOSITORY\3DGP\3DGP.27\DIRECTXTK-MASTER\SRC\PLATFORMHELPERS.H
C:\PROGRAM FILES (X86)\MICROSOFT VISUAL STUDIO 14.0\VC\INCLUDE\MUTEX
C:\PROGRAM FILES (X86)\MICROSOFT VISUAL STUDIO 14.0\VC\INCLUDE\CHRONO
C:\PROGRAM FILES (X86)\MICROSOFT VISUAL STUDIO 14.0\VC\INCLUDE\RATIO
C:\PROGRAM FILES (X86)\WINDOWS KITS\10\INCLUDE\10.0.10240.0\UCRT\TIME.H
C:\PROGRAM FILES (X86)\MICROSOFT VISUAL STUDIO 14.0\VC\INCLUDE\THR\XTIMEC.H
C:\PROGRAM FILES (X86)\MICROSOFT VISUAL STUDIO 14.0\VC\INCLUDE\THR\XTHRCOMMON.H
C:\PROGRAM FILES (X86)\MICROSOFT VISUAL STUDIO 14.0\VC\INCLUDE\FUNCTIONAL
C:\PROGRAM FILES (X86)\MICROSOFT VISUAL STUDIO 14.0\VC\INCLUDE\XFUNCTIONAL
C:\PROGRAM FILES (X86)\MICROSOFT VISUAL STUDIO 14.0\VC\INCLUDE\THREAD
C:\PROGRAM FILES (X86)\MICROSOFT VISUAL STUDIO 14.0\VC\INCLUDE\THR\XTHREAD
C:\PROGRAM FILES (X86)\MICROSOFT VISUAL STUDIO 14.0\VC\INCLUDE\THR\XTIME
C:\PROGRAM FILES (X86)\MICROSOFT VISUAL STUDIO 14.0\VC\INCLUDE\THR\XTHREADS.H
C:\USERS\11327\DESKTOP\SVN REPOSITORY\3DGP\3DGP.27\DIRECTXTK-MASTER\SRC\LOADERHELPERS.H
C:\USERS\11327\DESKTOP\SVN REPOSITORY\3DGP\3DGP.27\DIRECTXTK-MASTER\SRC\DDS.H
C:\USERS\11327\DESKTOP\SVN REPOSITORY\3DGP\3DGP.27\DIRECTXTK-MASTER\INC\DDSTEXTURELOADER.H
